%YAML 1.1
%TAG !u! tag:unity3d.com,2011:
--- !u!29 &1
OcclusionCullingSettings:
  m_ObjectHideFlags: 0
  serializedVersion: 2
  m_OcclusionBakeSettings:
    smallestOccluder: 5
    smallestHole: 0.25
    backfaceThreshold: 100
  m_SceneGUID: 00000000000000000000000000000000
  m_OcclusionCullingData: {fileID: 0}
--- !u!104 &2
RenderSettings:
  m_ObjectHideFlags: 0
  serializedVersion: 9
  m_Fog: 0
  m_FogColor: {r: 0.5, g: 0.5, b: 0.5, a: 1}
  m_FogMode: 3
  m_FogDensity: 0.01
  m_LinearFogStart: 0
  m_LinearFogEnd: 300
  m_AmbientSkyColor: {r: 0.212, g: 0.227, b: 0.259, a: 1}
  m_AmbientEquatorColor: {r: 0.114, g: 0.125, b: 0.133, a: 1}
  m_AmbientGroundColor: {r: 0.047, g: 0.043, b: 0.035, a: 1}
  m_AmbientIntensity: 0
  m_AmbientMode: 0
  m_SubtractiveShadowColor: {r: 0.42, g: 0.478, b: 0.627, a: 1}
  m_SkyboxMaterial: {fileID: 10304, guid: 0000000000000000f000000000000000, type: 0}
  m_HaloStrength: 0.5
  m_FlareStrength: 1
  m_FlareFadeSpeed: 3
  m_HaloTexture: {fileID: 0}
  m_SpotCookie: {fileID: 10001, guid: 0000000000000000e000000000000000, type: 0}
  m_DefaultReflectionMode: 0
  m_DefaultReflectionResolution: 128
  m_ReflectionBounces: 1
  m_ReflectionIntensity: 0
  m_CustomReflection: {fileID: 0}
  m_Sun: {fileID: 0}
  m_IndirectSpecularColor: {r: 0, g: 0, b: 0, a: 0}
  m_UseRadianceAmbientProbe: 0
--- !u!157 &3
LightmapSettings:
  m_ObjectHideFlags: 0
  serializedVersion: 11
  m_GIWorkflowMode: 1
  m_GISettings:
    serializedVersion: 2
    m_BounceScale: 1
    m_IndirectOutputScale: 1
    m_AlbedoBoost: 1
    m_TemporalCoherenceThreshold: 1
    m_EnvironmentLightingMode: 0
    m_EnableBakedLightmaps: 1
    m_EnableRealtimeLightmaps: 0
  m_LightmapEditorSettings:
    serializedVersion: 10
    m_Resolution: 2
    m_BakeResolution: 40
    m_AtlasSize: 1024
    m_AO: 0
    m_AOMaxDistance: 1
    m_CompAOExponent: 1
    m_CompAOExponentDirect: 0
    m_Padding: 25
    m_LightmapParameters: {fileID: 0}
    m_LightmapsBakeMode: 1
    m_TextureCompression: 1
    m_FinalGather: 0
    m_FinalGatherFiltering: 1
    m_FinalGatherRayCount: 256
    m_ReflectionCompression: 2
    m_MixedBakeMode: 2
    m_BakeBackend: 1
    m_PVRSampling: 1
    m_PVRDirectSampleCount: 100
    m_PVRSampleCount: 200
    m_PVRBounces: 2
    m_PVRFilterTypeDirect: 0
    m_PVRFilterTypeIndirect: 0
    m_PVRFilterTypeAO: 0
    m_PVRFilteringMode: 1
    m_PVRCulling: 1
    m_PVRFilteringGaussRadiusDirect: 1
    m_PVRFilteringGaussRadiusIndirect: 5
    m_PVRFilteringGaussRadiusAO: 2
    m_PVRFilteringAtrousPositionSigmaDirect: 0.5
    m_PVRFilteringAtrousPositionSigmaIndirect: 2
    m_PVRFilteringAtrousPositionSigmaAO: 1
    m_ShowResolutionOverlay: 1
  m_LightingDataAsset: {fileID: 112000002, guid: 74b05b8e82e6a43ffa4618d42561454d,
    type: 2}
  m_UseShadowmask: 1
--- !u!196 &4
NavMeshSettings:
  serializedVersion: 2
  m_ObjectHideFlags: 0
  m_BuildSettings:
    serializedVersion: 2
    agentTypeID: 0
    agentRadius: 0.5
    agentHeight: 2
    agentSlope: 45
    agentClimb: 0.4
    ledgeDropHeight: 0
    maxJumpAcrossDistance: 0
    minRegionArea: 2
    manualCellSize: 0
    cellSize: 0.16666667
    manualTileSize: 0
    tileSize: 256
    accuratePlacement: 0
    debug:
      m_Flags: 0
  m_NavMeshData: {fileID: 0}
--- !u!1001 &78485387
Prefab:
  m_ObjectHideFlags: 0
  serializedVersion: 2
  m_Modification:
    m_TransformParent: {fileID: 0}
    m_Modifications:
    - target: {fileID: 4362558282196814, guid: adcc0933a8f220d4895507bdad73ba9a, type: 2}
      propertyPath: m_LocalPosition.x
      value: 0
      objectReference: {fileID: 0}
    - target: {fileID: 4362558282196814, guid: adcc0933a8f220d4895507bdad73ba9a, type: 2}
      propertyPath: m_LocalPosition.y
      value: 0
      objectReference: {fileID: 0}
    - target: {fileID: 4362558282196814, guid: adcc0933a8f220d4895507bdad73ba9a, type: 2}
      propertyPath: m_LocalPosition.z
      value: 0
      objectReference: {fileID: 0}
    - target: {fileID: 4362558282196814, guid: adcc0933a8f220d4895507bdad73ba9a, type: 2}
      propertyPath: m_LocalRotation.x
      value: 0
      objectReference: {fileID: 0}
    - target: {fileID: 4362558282196814, guid: adcc0933a8f220d4895507bdad73ba9a, type: 2}
      propertyPath: m_LocalRotation.y
      value: 0
      objectReference: {fileID: 0}
    - target: {fileID: 4362558282196814, guid: adcc0933a8f220d4895507bdad73ba9a, type: 2}
      propertyPath: m_LocalRotation.z
      value: 0
      objectReference: {fileID: 0}
    - target: {fileID: 4362558282196814, guid: adcc0933a8f220d4895507bdad73ba9a, type: 2}
      propertyPath: m_LocalRotation.w
      value: 1
      objectReference: {fileID: 0}
    - target: {fileID: 4362558282196814, guid: adcc0933a8f220d4895507bdad73ba9a, type: 2}
      propertyPath: m_RootOrder
      value: 5
      objectReference: {fileID: 0}
    - target: {fileID: 1026292039256996, guid: adcc0933a8f220d4895507bdad73ba9a, type: 2}
      propertyPath: m_IsActive
      value: 0
      objectReference: {fileID: 0}
    m_RemovedComponents: []
  m_SourcePrefab: {fileID: 100100000, guid: adcc0933a8f220d4895507bdad73ba9a, type: 2}
  m_IsPrefabAsset: 0
--- !u!1001 &97081777
Prefab:
  m_ObjectHideFlags: 0
  serializedVersion: 2
  m_Modification:
    m_TransformParent: {fileID: 0}
    m_Modifications:
    - target: {fileID: 4786038410361560, guid: 83d56d18e3b8e7947882159e8020ba07, type: 2}
      propertyPath: m_LocalPosition.x
      value: 0
      objectReference: {fileID: 0}
    - target: {fileID: 4786038410361560, guid: 83d56d18e3b8e7947882159e8020ba07, type: 2}
      propertyPath: m_LocalPosition.y
      value: 0
      objectReference: {fileID: 0}
    - target: {fileID: 4786038410361560, guid: 83d56d18e3b8e7947882159e8020ba07, type: 2}
      propertyPath: m_LocalPosition.z
      value: 0
      objectReference: {fileID: 0}
    - target: {fileID: 4786038410361560, guid: 83d56d18e3b8e7947882159e8020ba07, type: 2}
      propertyPath: m_LocalRotation.x
      value: 0
      objectReference: {fileID: 0}
    - target: {fileID: 4786038410361560, guid: 83d56d18e3b8e7947882159e8020ba07, type: 2}
      propertyPath: m_LocalRotation.y
      value: 0
      objectReference: {fileID: 0}
    - target: {fileID: 4786038410361560, guid: 83d56d18e3b8e7947882159e8020ba07, type: 2}
      propertyPath: m_LocalRotation.z
      value: 0
      objectReference: {fileID: 0}
    - target: {fileID: 4786038410361560, guid: 83d56d18e3b8e7947882159e8020ba07, type: 2}
      propertyPath: m_LocalRotation.w
      value: 1
      objectReference: {fileID: 0}
    - target: {fileID: 4786038410361560, guid: 83d56d18e3b8e7947882159e8020ba07, type: 2}
      propertyPath: m_RootOrder
      value: 16
      objectReference: {fileID: 0}
    - target: {fileID: 1665748426615252, guid: 83d56d18e3b8e7947882159e8020ba07, type: 2}
      propertyPath: m_Layer
      value: 30
      objectReference: {fileID: 0}
    - target: {fileID: 1162942520724572, guid: 83d56d18e3b8e7947882159e8020ba07, type: 2}
      propertyPath: m_Layer
      value: 30
      objectReference: {fileID: 0}
    - target: {fileID: 1430560895891048, guid: 83d56d18e3b8e7947882159e8020ba07, type: 2}
      propertyPath: m_Layer
      value: 30
      objectReference: {fileID: 0}
    - target: {fileID: 1367035730114276, guid: 83d56d18e3b8e7947882159e8020ba07, type: 2}
      propertyPath: m_Layer
      value: 30
      objectReference: {fileID: 0}
    - target: {fileID: 1944170624026984, guid: 83d56d18e3b8e7947882159e8020ba07, type: 2}
      propertyPath: m_Layer
      value: 30
      objectReference: {fileID: 0}
    m_RemovedComponents: []
  m_SourcePrefab: {fileID: 100100000, guid: 83d56d18e3b8e7947882159e8020ba07, type: 2}
  m_IsPrefabAsset: 0
--- !u!1001 &149137477
Prefab:
  m_ObjectHideFlags: 0
  serializedVersion: 2
  m_Modification:
    m_TransformParent: {fileID: 0}
    m_Modifications:
    - target: {fileID: 4087534940464994, guid: be2baeb07e2e0a74eba7350cf89061a8, type: 2}
      propertyPath: m_LocalPosition.x
      value: 0
      objectReference: {fileID: 0}
    - target: {fileID: 4087534940464994, guid: be2baeb07e2e0a74eba7350cf89061a8, type: 2}
      propertyPath: m_LocalPosition.y
      value: 0
      objectReference: {fileID: 0}
    - target: {fileID: 4087534940464994, guid: be2baeb07e2e0a74eba7350cf89061a8, type: 2}
      propertyPath: m_LocalPosition.z
      value: 0
      objectReference: {fileID: 0}
    - target: {fileID: 4087534940464994, guid: be2baeb07e2e0a74eba7350cf89061a8, type: 2}
      propertyPath: m_LocalRotation.x
      value: 0
      objectReference: {fileID: 0}
    - target: {fileID: 4087534940464994, guid: be2baeb07e2e0a74eba7350cf89061a8, type: 2}
      propertyPath: m_LocalRotation.y
      value: 0
      objectReference: {fileID: 0}
    - target: {fileID: 4087534940464994, guid: be2baeb07e2e0a74eba7350cf89061a8, type: 2}
      propertyPath: m_LocalRotation.z
      value: 0
      objectReference: {fileID: 0}
    - target: {fileID: 4087534940464994, guid: be2baeb07e2e0a74eba7350cf89061a8, type: 2}
      propertyPath: m_LocalRotation.w
      value: 1
      objectReference: {fileID: 0}
    - target: {fileID: 4087534940464994, guid: be2baeb07e2e0a74eba7350cf89061a8, type: 2}
      propertyPath: m_RootOrder
      value: 6
      objectReference: {fileID: 0}
    - target: {fileID: 1204786614005256, guid: be2baeb07e2e0a74eba7350cf89061a8, type: 2}
      propertyPath: m_IsActive
      value: 0
      objectReference: {fileID: 0}
    m_RemovedComponents: []
  m_SourcePrefab: {fileID: 100100000, guid: be2baeb07e2e0a74eba7350cf89061a8, type: 2}
  m_IsPrefabAsset: 0
--- !u!4 &269512146 stripped
Transform:
  m_CorrespondingSourceObject: {fileID: 4872708590017196, guid: 66f606c3eaad83d42ac8cade14adabbb,
    type: 2}
  m_PrefabInternal: {fileID: 1881467666}
--- !u!1001 &322370153
Prefab:
  m_ObjectHideFlags: 0
  serializedVersion: 2
  m_Modification:
    m_TransformParent: {fileID: 0}
    m_Modifications:
    - target: {fileID: 4654148395871234, guid: 5d3871411c8d5f4428e82e1307804173, type: 2}
      propertyPath: m_LocalPosition.x
      value: 0
      objectReference: {fileID: 0}
    - target: {fileID: 4654148395871234, guid: 5d3871411c8d5f4428e82e1307804173, type: 2}
      propertyPath: m_LocalPosition.y
      value: 0
      objectReference: {fileID: 0}
    - target: {fileID: 4654148395871234, guid: 5d3871411c8d5f4428e82e1307804173, type: 2}
      propertyPath: m_LocalPosition.z
      value: 0
      objectReference: {fileID: 0}
    - target: {fileID: 4654148395871234, guid: 5d3871411c8d5f4428e82e1307804173, type: 2}
      propertyPath: m_LocalRotation.x
      value: -0
      objectReference: {fileID: 0}
    - target: {fileID: 4654148395871234, guid: 5d3871411c8d5f4428e82e1307804173, type: 2}
      propertyPath: m_LocalRotation.y
      value: -0
      objectReference: {fileID: 0}
    - target: {fileID: 4654148395871234, guid: 5d3871411c8d5f4428e82e1307804173, type: 2}
      propertyPath: m_LocalRotation.z
      value: -0
      objectReference: {fileID: 0}
    - target: {fileID: 4654148395871234, guid: 5d3871411c8d5f4428e82e1307804173, type: 2}
      propertyPath: m_LocalRotation.w
      value: 1
      objectReference: {fileID: 0}
    - target: {fileID: 4654148395871234, guid: 5d3871411c8d5f4428e82e1307804173, type: 2}
      propertyPath: m_RootOrder
      value: 9
      objectReference: {fileID: 0}
    - target: {fileID: 1731256093860370, guid: 5d3871411c8d5f4428e82e1307804173, type: 2}
      propertyPath: m_IsActive
      value: 1
      objectReference: {fileID: 0}
    m_RemovedComponents: []
  m_SourcePrefab: {fileID: 100100000, guid: 5d3871411c8d5f4428e82e1307804173, type: 2}
  m_IsPrefabAsset: 0
--- !u!4 &372708933 stripped
Transform:
  m_CorrespondingSourceObject: {fileID: 4582500135908816, guid: 66f606c3eaad83d42ac8cade14adabbb,
    type: 2}
  m_PrefabInternal: {fileID: 1881467666}
--- !u!1001 &456390964
Prefab:
  m_ObjectHideFlags: 0
  serializedVersion: 2
  m_Modification:
    m_TransformParent: {fileID: 0}
    m_Modifications:
    - target: {fileID: 400000, guid: 5e9e851c0e142814dac026a256ba2ac0, type: 2}
      propertyPath: m_LocalPosition.x
      value: -9
      objectReference: {fileID: 0}
    - target: {fileID: 400000, guid: 5e9e851c0e142814dac026a256ba2ac0, type: 2}
      propertyPath: m_LocalPosition.y
      value: 1
      objectReference: {fileID: 0}
    - target: {fileID: 400000, guid: 5e9e851c0e142814dac026a256ba2ac0, type: 2}
      propertyPath: m_LocalPosition.z
      value: 0
      objectReference: {fileID: 0}
    - target: {fileID: 400000, guid: 5e9e851c0e142814dac026a256ba2ac0, type: 2}
      propertyPath: m_LocalRotation.x
      value: 0
      objectReference: {fileID: 0}
    - target: {fileID: 400000, guid: 5e9e851c0e142814dac026a256ba2ac0, type: 2}
      propertyPath: m_LocalRotation.y
      value: 0.7071068
      objectReference: {fileID: 0}
    - target: {fileID: 400000, guid: 5e9e851c0e142814dac026a256ba2ac0, type: 2}
      propertyPath: m_LocalRotation.z
      value: -0
      objectReference: {fileID: 0}
    - target: {fileID: 400000, guid: 5e9e851c0e142814dac026a256ba2ac0, type: 2}
      propertyPath: m_LocalRotation.w
      value: -0.7071068
      objectReference: {fileID: 0}
    - target: {fileID: 400000, guid: 5e9e851c0e142814dac026a256ba2ac0, type: 2}
      propertyPath: m_RootOrder
      value: 10
      objectReference: {fileID: 0}
    - target: {fileID: 400000, guid: 5e9e851c0e142814dac026a256ba2ac0, type: 2}
      propertyPath: m_LocalEulerAnglesHint.x
      value: 0
      objectReference: {fileID: 0}
    - target: {fileID: 400000, guid: 5e9e851c0e142814dac026a256ba2ac0, type: 2}
      propertyPath: m_LocalEulerAnglesHint.y
      value: 270
      objectReference: {fileID: 0}
    - target: {fileID: 2000000, guid: 5e9e851c0e142814dac026a256ba2ac0, type: 2}
      propertyPath: m_ForceIntoRT
      value: 1
      objectReference: {fileID: 0}
    - target: {fileID: 2000000, guid: 5e9e851c0e142814dac026a256ba2ac0, type: 2}
      propertyPath: m_HDR
      value: 1
      objectReference: {fileID: 0}
    - target: {fileID: 2000000, guid: 5e9e851c0e142814dac026a256ba2ac0, type: 2}
      propertyPath: m_AllowMSAA
      value: 0
      objectReference: {fileID: 0}
    - target: {fileID: 2000000, guid: 5e9e851c0e142814dac026a256ba2ac0, type: 2}
      propertyPath: m_RenderingPath
      value: 3
      objectReference: {fileID: 0}
    m_RemovedComponents: []
  m_SourcePrefab: {fileID: 100100000, guid: 5e9e851c0e142814dac026a256ba2ac0, type: 2}
  m_IsPrefabAsset: 0
--- !u!1 &522455684
GameObject:
  m_ObjectHideFlags: 0
  m_CorrespondingSourceObject: {fileID: 0}
  m_PrefabInternal: {fileID: 0}
  serializedVersion: 6
  m_Component:
  - component: {fileID: 522455685}
  - component: {fileID: 522455686}
  - component: {fileID: 522455687}
  m_Layer: 0
  m_Name: Flashlight
  m_TagString: Untagged
  m_Icon: {fileID: 0}
  m_NavMeshLayer: 0
  m_StaticEditorFlags: 0
  m_IsActive: 1
--- !u!4 &522455685
Transform:
  m_ObjectHideFlags: 0
  m_CorrespondingSourceObject: {fileID: 0}
  m_PrefabInternal: {fileID: 0}
  m_GameObject: {fileID: 522455684}
  m_LocalRotation: {x: 0, y: -0.026176924, z: 0, w: 0.99965733}
  m_LocalPosition: {x: 0.2, y: -0.5, z: 0}
  m_LocalScale: {x: 1, y: 1, z: 1}
  m_Children: []
  m_Father: {fileID: 827759597}
  m_RootOrder: 0
  m_LocalEulerAnglesHint: {x: 0, y: -3, z: 0}
--- !u!108 &522455686
Light:
  m_ObjectHideFlags: 0
  m_CorrespondingSourceObject: {fileID: 0}
  m_PrefabInternal: {fileID: 0}
  m_GameObject: {fileID: 522455684}
  m_Enabled: 0
  serializedVersion: 8
  m_Type: 0
  m_Color: {r: 1, g: 1, b: 1, a: 1}
  m_Intensity: 1
  m_Range: 10
  m_SpotAngle: 50
  m_CookieSize: 10
  m_Shadows:
    m_Type: 0
    m_Resolution: -1
    m_CustomResolution: -1
    m_Strength: 1
    m_Bias: 0.05
    m_NormalBias: 0.4
    m_NearPlane: 0.2
  m_Cookie: {fileID: 2800000, guid: 641bb2dce818a8a499b537a1963889ac, type: 3}
  m_DrawHalo: 0
  m_Flare: {fileID: 0}
  m_RenderMode: 0
  m_CullingMask:
    serializedVersion: 2
    m_Bits: 4294967295
  m_Lightmapping: 4
  m_LightShadowCasterMode: 0
  m_AreaSize: {x: 1, y: 1}
  m_BounceIntensity: 1
  m_ColorTemperature: 6570
  m_UseColorTemperature: 0
  m_ShadowRadius: 0
  m_ShadowAngle: 0
--- !u!114 &522455687
MonoBehaviour:
  m_ObjectHideFlags: 0
  m_CorrespondingSourceObject: {fileID: 0}
  m_PrefabInternal: {fileID: 0}
  m_GameObject: {fileID: 522455684}
  m_Enabled: 1
  m_EditorHideFlags: 0
  m_Script: {fileID: 11500000, guid: c683cbf707c864143b31deb66a80023e, type: 3}
  m_Name: 
  m_EditorClassIdentifier: 
  toggleKey: f
--- !u!1001 &664667444
Prefab:
  m_ObjectHideFlags: 0
  serializedVersion: 2
  m_Modification:
    m_TransformParent: {fileID: 0}
    m_Modifications:
    - target: {fileID: 4761001537956562, guid: 5acc67646643849938674d9d813be2bc, type: 2}
      propertyPath: m_LocalPosition.x
      value: -9
      objectReference: {fileID: 0}
    - target: {fileID: 4761001537956562, guid: 5acc67646643849938674d9d813be2bc, type: 2}
      propertyPath: m_LocalPosition.y
      value: 2
      objectReference: {fileID: 0}
    - target: {fileID: 4761001537956562, guid: 5acc67646643849938674d9d813be2bc, type: 2}
      propertyPath: m_LocalPosition.z
      value: 1.5
      objectReference: {fileID: 0}
    - target: {fileID: 4761001537956562, guid: 5acc67646643849938674d9d813be2bc, type: 2}
      propertyPath: m_LocalRotation.x
      value: -0.02745057
      objectReference: {fileID: 0}
    - target: {fileID: 4761001537956562, guid: 5acc67646643849938674d9d813be2bc, type: 2}
      propertyPath: m_LocalRotation.y
      value: -0.77640647
      objectReference: {fileID: 0}
    - target: {fileID: 4761001537956562, guid: 5acc67646643849938674d9d813be2bc, type: 2}
      propertyPath: m_LocalRotation.z
      value: 0.03389865
      objectReference: {fileID: 0}
    - target: {fileID: 4761001537956562, guid: 5acc67646643849938674d9d813be2bc, type: 2}
      propertyPath: m_LocalRotation.w
      value: -0.62872124
      objectReference: {fileID: 0}
    - target: {fileID: 4761001537956562, guid: 5acc67646643849938674d9d813be2bc, type: 2}
      propertyPath: m_RootOrder
      value: 1
      objectReference: {fileID: 0}
    - target: {fileID: 20331323035144044, guid: 5acc67646643849938674d9d813be2bc,
        type: 2}
      propertyPath: m_ClearFlags
      value: 2
      objectReference: {fileID: 0}
    - target: {fileID: 20331323035144044, guid: 5acc67646643849938674d9d813be2bc,
        type: 2}
      propertyPath: m_BackGroundColor.r
      value: 0
      objectReference: {fileID: 0}
    - target: {fileID: 20331323035144044, guid: 5acc67646643849938674d9d813be2bc,
        type: 2}
      propertyPath: m_BackGroundColor.g
      value: 0
      objectReference: {fileID: 0}
    - target: {fileID: 20331323035144044, guid: 5acc67646643849938674d9d813be2bc,
        type: 2}
      propertyPath: m_BackGroundColor.b
      value: 0
      objectReference: {fileID: 0}
    - target: {fileID: 20331323035144044, guid: 5acc67646643849938674d9d813be2bc,
        type: 2}
      propertyPath: m_ForceIntoRT
      value: 1
      objectReference: {fileID: 0}
    - target: {fileID: 1273562311564970, guid: 5acc67646643849938674d9d813be2bc, type: 2}
      propertyPath: m_IsActive
      value: 0
      objectReference: {fileID: 0}
    m_RemovedComponents: []
  m_SourcePrefab: {fileID: 100100000, guid: 5acc67646643849938674d9d813be2bc, type: 2}
  m_IsPrefabAsset: 0
--- !u!1 &664667445 stripped
GameObject:
  m_CorrespondingSourceObject: {fileID: 1273562311564970, guid: 5acc67646643849938674d9d813be2bc,
    type: 2}
  m_PrefabInternal: {fileID: 664667444}
--- !u!4 &664667446 stripped
Transform:
  m_CorrespondingSourceObject: {fileID: 4761001537956562, guid: 5acc67646643849938674d9d813be2bc,
    type: 2}
  m_PrefabInternal: {fileID: 664667444}
--- !u!114 &664667447
MonoBehaviour:
  m_ObjectHideFlags: 0
  m_CorrespondingSourceObject: {fileID: 0}
  m_PrefabInternal: {fileID: 0}
  m_GameObject: {fileID: 664667445}
  m_Enabled: 1
  m_EditorHideFlags: 0
  m_Script: {fileID: 11500000, guid: 948f4100a11a5c24981795d21301da5c, type: 3}
  m_Name: 
  m_EditorClassIdentifier: 
  volumeTrigger: {fileID: 664667446}
  volumeLayer:
    serializedVersion: 2
    m_Bits: 256
  stopNaNPropagation: 1
  antialiasingMode: 0
  temporalAntialiasing:
    jitterSpread: 0.75
    sharpness: 0.25
    stationaryBlending: 0.95
    motionBlending: 0.85
  subpixelMorphologicalAntialiasing:
    quality: 2
  fastApproximateAntialiasing:
    fastMode: 0
    keepAlpha: 0
  fog:
    enabled: 1
    excludeSkybox: 1
  debugLayer:
    lightMeter:
      width: 512
      height: 256
      showCurves: 1
    histogram:
      width: 512
      height: 256
      channel: 3
    waveform:
      exposure: 0.12
      height: 256
    vectorscope:
      size: 256
      exposure: 0.12
    overlaySettings:
      linearDepth: 0
      motionColorIntensity: 4
      motionGridSize: 64
      colorBlindnessType: 0
      colorBlindnessStrength: 1
  m_Resources: {fileID: 11400000, guid: d82512f9c8e5d4a4d938b575d47f88d4, type: 2}
  m_ShowToolkit: 0
  m_ShowCustomSorter: 0
  breakBeforeColorGrading: 0
  m_BeforeTransparentBundles: []
  m_BeforeStackBundles: []
  m_AfterStackBundles: []
--- !u!1001 &682608204
Prefab:
  m_ObjectHideFlags: 0
  serializedVersion: 2
  m_Modification:
    m_TransformParent: {fileID: 0}
    m_Modifications:
    - target: {fileID: 4242342986245786, guid: 86eb91c944b87df489809be56332a79a, type: 2}
      propertyPath: m_LocalPosition.x
      value: -1.5
      objectReference: {fileID: 0}
    - target: {fileID: 4242342986245786, guid: 86eb91c944b87df489809be56332a79a, type: 2}
      propertyPath: m_LocalPosition.y
      value: 0
      objectReference: {fileID: 0}
    - target: {fileID: 4242342986245786, guid: 86eb91c944b87df489809be56332a79a, type: 2}
      propertyPath: m_LocalPosition.z
      value: -1.5
      objectReference: {fileID: 0}
    - target: {fileID: 4242342986245786, guid: 86eb91c944b87df489809be56332a79a, type: 2}
      propertyPath: m_LocalRotation.x
      value: 0
      objectReference: {fileID: 0}
    - target: {fileID: 4242342986245786, guid: 86eb91c944b87df489809be56332a79a, type: 2}
      propertyPath: m_LocalRotation.y
      value: 0.5
      objectReference: {fileID: 0}
    - target: {fileID: 4242342986245786, guid: 86eb91c944b87df489809be56332a79a, type: 2}
      propertyPath: m_LocalRotation.z
      value: 0
      objectReference: {fileID: 0}
    - target: {fileID: 4242342986245786, guid: 86eb91c944b87df489809be56332a79a, type: 2}
      propertyPath: m_LocalRotation.w
      value: 0.8660254
      objectReference: {fileID: 0}
    - target: {fileID: 4242342986245786, guid: 86eb91c944b87df489809be56332a79a, type: 2}
      propertyPath: m_RootOrder
      value: 7
      objectReference: {fileID: 0}
    - target: {fileID: 1143005562965730, guid: 86eb91c944b87df489809be56332a79a, type: 2}
      propertyPath: m_IsActive
      value: 1
      objectReference: {fileID: 0}
    - target: {fileID: 1143005562965730, guid: 86eb91c944b87df489809be56332a79a, type: 2}
      propertyPath: m_Layer
      value: 29
      objectReference: {fileID: 0}
    - target: {fileID: 1234819742927188, guid: 86eb91c944b87df489809be56332a79a, type: 2}
      propertyPath: m_Layer
      value: 29
      objectReference: {fileID: 0}
    - target: {fileID: 1319503972644468, guid: 86eb91c944b87df489809be56332a79a, type: 2}
      propertyPath: m_Layer
      value: 29
      objectReference: {fileID: 0}
    - target: {fileID: 1354301764453666, guid: 86eb91c944b87df489809be56332a79a, type: 2}
      propertyPath: m_Layer
      value: 29
      objectReference: {fileID: 0}
    - target: {fileID: 1990195203196160, guid: 86eb91c944b87df489809be56332a79a, type: 2}
      propertyPath: m_Layer
      value: 29
      objectReference: {fileID: 0}
    - target: {fileID: 1645395529326398, guid: 86eb91c944b87df489809be56332a79a, type: 2}
      propertyPath: m_Layer
      value: 29
      objectReference: {fileID: 0}
    - target: {fileID: 1894080193980154, guid: 86eb91c944b87df489809be56332a79a, type: 2}
      propertyPath: m_Layer
      value: 29
      objectReference: {fileID: 0}
    - target: {fileID: 1677470637742422, guid: 86eb91c944b87df489809be56332a79a, type: 2}
      propertyPath: m_Layer
      value: 29
      objectReference: {fileID: 0}
    - target: {fileID: 1508869967383502, guid: 86eb91c944b87df489809be56332a79a, type: 2}
      propertyPath: m_Layer
      value: 29
      objectReference: {fileID: 0}
    - target: {fileID: 1301970741943684, guid: 86eb91c944b87df489809be56332a79a, type: 2}
      propertyPath: m_Layer
      value: 29
      objectReference: {fileID: 0}
    - target: {fileID: 1871740636282224, guid: 86eb91c944b87df489809be56332a79a, type: 2}
      propertyPath: m_Layer
      value: 29
      objectReference: {fileID: 0}
    - target: {fileID: 1183740109754898, guid: 86eb91c944b87df489809be56332a79a, type: 2}
      propertyPath: m_Layer
      value: 29
      objectReference: {fileID: 0}
    - target: {fileID: 1004286210192526, guid: 86eb91c944b87df489809be56332a79a, type: 2}
      propertyPath: m_Layer
      value: 29
      objectReference: {fileID: 0}
    - target: {fileID: 1449318940145302, guid: 86eb91c944b87df489809be56332a79a, type: 2}
      propertyPath: m_Layer
      value: 29
      objectReference: {fileID: 0}
    - target: {fileID: 1179928716466682, guid: 86eb91c944b87df489809be56332a79a, type: 2}
      propertyPath: m_Layer
      value: 29
      objectReference: {fileID: 0}
    - target: {fileID: 1620632405876638, guid: 86eb91c944b87df489809be56332a79a, type: 2}
      propertyPath: m_Layer
      value: 29
      objectReference: {fileID: 0}
    - target: {fileID: 1603004680409468, guid: 86eb91c944b87df489809be56332a79a, type: 2}
      propertyPath: m_Layer
      value: 29
      objectReference: {fileID: 0}
    - target: {fileID: 1253799383086484, guid: 86eb91c944b87df489809be56332a79a, type: 2}
      propertyPath: m_Layer
      value: 29
      objectReference: {fileID: 0}
    - target: {fileID: 1639726972923992, guid: 86eb91c944b87df489809be56332a79a, type: 2}
      propertyPath: m_Layer
      value: 29
      objectReference: {fileID: 0}
    m_RemovedComponents: []
  m_SourcePrefab: {fileID: 100100000, guid: 86eb91c944b87df489809be56332a79a, type: 2}
  m_IsPrefabAsset: 0
--- !u!1001 &753730861
Prefab:
  m_ObjectHideFlags: 0
  serializedVersion: 2
  m_Modification:
    m_TransformParent: {fileID: 0}
    m_Modifications:
    - target: {fileID: 4728405665599508, guid: 86f811c238cf63b48bc0e8675f4dafa1, type: 2}
      propertyPath: m_LocalPosition.x
      value: 0
      objectReference: {fileID: 0}
    - target: {fileID: 4728405665599508, guid: 86f811c238cf63b48bc0e8675f4dafa1, type: 2}
      propertyPath: m_LocalPosition.y
      value: 0
      objectReference: {fileID: 0}
    - target: {fileID: 4728405665599508, guid: 86f811c238cf63b48bc0e8675f4dafa1, type: 2}
      propertyPath: m_LocalPosition.z
      value: 0
      objectReference: {fileID: 0}
    - target: {fileID: 4728405665599508, guid: 86f811c238cf63b48bc0e8675f4dafa1, type: 2}
      propertyPath: m_LocalRotation.x
      value: 0
      objectReference: {fileID: 0}
    - target: {fileID: 4728405665599508, guid: 86f811c238cf63b48bc0e8675f4dafa1, type: 2}
      propertyPath: m_LocalRotation.y
      value: 0
      objectReference: {fileID: 0}
    - target: {fileID: 4728405665599508, guid: 86f811c238cf63b48bc0e8675f4dafa1, type: 2}
      propertyPath: m_LocalRotation.z
      value: 0
      objectReference: {fileID: 0}
    - target: {fileID: 4728405665599508, guid: 86f811c238cf63b48bc0e8675f4dafa1, type: 2}
      propertyPath: m_LocalRotation.w
      value: 1
      objectReference: {fileID: 0}
    - target: {fileID: 4728405665599508, guid: 86f811c238cf63b48bc0e8675f4dafa1, type: 2}
      propertyPath: m_RootOrder
      value: 4
      objectReference: {fileID: 0}
    - target: {fileID: 1649269110669842, guid: 86f811c238cf63b48bc0e8675f4dafa1, type: 2}
      propertyPath: m_IsActive
      value: 1
      objectReference: {fileID: 0}
    m_RemovedComponents: []
  m_SourcePrefab: {fileID: 100100000, guid: 86f811c238cf63b48bc0e8675f4dafa1, type: 2}
  m_IsPrefabAsset: 0
--- !u!1 &827759596 stripped
GameObject:
  m_CorrespondingSourceObject: {fileID: 100002, guid: 5e9e851c0e142814dac026a256ba2ac0,
    type: 2}
  m_PrefabInternal: {fileID: 456390964}
--- !u!4 &827759597 stripped
Transform:
  m_CorrespondingSourceObject: {fileID: 400002, guid: 5e9e851c0e142814dac026a256ba2ac0,
    type: 2}
  m_PrefabInternal: {fileID: 456390964}
--- !u!114 &827759601
MonoBehaviour:
  m_ObjectHideFlags: 0
  m_CorrespondingSourceObject: {fileID: 0}
  m_PrefabInternal: {fileID: 0}
  m_GameObject: {fileID: 827759596}
  m_Enabled: 1
  m_EditorHideFlags: 0
  m_Script: {fileID: 11500000, guid: 948f4100a11a5c24981795d21301da5c, type: 3}
  m_Name: 
  m_EditorClassIdentifier: 
  volumeTrigger: {fileID: 664667446}
  volumeLayer:
    serializedVersion: 2
    m_Bits: 256
  stopNaNPropagation: 1
  antialiasingMode: 3
  temporalAntialiasing:
    jitterSpread: 0.75
    sharpness: 0.25
    stationaryBlending: 0.95
    motionBlending: 0.85
  subpixelMorphologicalAntialiasing:
    quality: 2
  fastApproximateAntialiasing:
    fastMode: 0
    keepAlpha: 0
  fog:
    enabled: 1
    excludeSkybox: 1
  debugLayer:
    lightMeter:
      width: 512
      height: 256
      showCurves: 1
    histogram:
      width: 512
      height: 256
      channel: 3
    waveform:
      exposure: 0.12
      height: 256
    vectorscope:
      size: 256
      exposure: 0.12
    overlaySettings:
      linearDepth: 0
      motionColorIntensity: 4
      motionGridSize: 64
      colorBlindnessType: 0
      colorBlindnessStrength: 1
  m_Resources: {fileID: 11400000, guid: d82512f9c8e5d4a4d938b575d47f88d4, type: 2}
  m_ShowToolkit: 0
  m_ShowCustomSorter: 0
  breakBeforeColorGrading: 0
  m_BeforeTransparentBundles: []
  m_BeforeStackBundles: []
  m_AfterStackBundles: []
--- !u!1001 &1037684050
Prefab:
  m_ObjectHideFlags: 0
  serializedVersion: 2
  m_Modification:
    m_TransformParent: {fileID: 0}
    m_Modifications:
    - target: {fileID: 4502602799362764, guid: 3f411b0f7c096164096a9a03c1be6732, type: 2}
      propertyPath: m_LocalPosition.x
      value: 0
      objectReference: {fileID: 0}
    - target: {fileID: 4502602799362764, guid: 3f411b0f7c096164096a9a03c1be6732, type: 2}
      propertyPath: m_LocalPosition.y
      value: 0
      objectReference: {fileID: 0}
    - target: {fileID: 4502602799362764, guid: 3f411b0f7c096164096a9a03c1be6732, type: 2}
      propertyPath: m_LocalPosition.z
      value: 0
      objectReference: {fileID: 0}
    - target: {fileID: 4502602799362764, guid: 3f411b0f7c096164096a9a03c1be6732, type: 2}
      propertyPath: m_LocalRotation.x
      value: 0
      objectReference: {fileID: 0}
    - target: {fileID: 4502602799362764, guid: 3f411b0f7c096164096a9a03c1be6732, type: 2}
      propertyPath: m_LocalRotation.y
      value: 0
      objectReference: {fileID: 0}
    - target: {fileID: 4502602799362764, guid: 3f411b0f7c096164096a9a03c1be6732, type: 2}
      propertyPath: m_LocalRotation.z
      value: 0
      objectReference: {fileID: 0}
    - target: {fileID: 4502602799362764, guid: 3f411b0f7c096164096a9a03c1be6732, type: 2}
      propertyPath: m_LocalRotation.w
      value: 1
      objectReference: {fileID: 0}
    - target: {fileID: 4502602799362764, guid: 3f411b0f7c096164096a9a03c1be6732, type: 2}
      propertyPath: m_RootOrder
      value: 14
      objectReference: {fileID: 0}
    - target: {fileID: 108163281684182622, guid: 3f411b0f7c096164096a9a03c1be6732,
        type: 2}
      propertyPath: m_CullingMask.m_Bits
      value: 4294967295
      objectReference: {fileID: 0}
    m_RemovedComponents: []
  m_SourcePrefab: {fileID: 100100000, guid: 3f411b0f7c096164096a9a03c1be6732, type: 2}
  m_IsPrefabAsset: 0
--- !u!1 &1077893744
GameObject:
  m_ObjectHideFlags: 0
  m_CorrespondingSourceObject: {fileID: 0}
  m_PrefabInternal: {fileID: 0}
  serializedVersion: 6
  m_Component:
  - component: {fileID: 1077893746}
  - component: {fileID: 1077893745}
  m_Layer: 0
  m_Name: Directional Light
  m_TagString: Untagged
  m_Icon: {fileID: 0}
  m_NavMeshLayer: 0
  m_StaticEditorFlags: 0
  m_IsActive: 1
--- !u!108 &1077893745
Light:
  m_ObjectHideFlags: 0
  m_CorrespondingSourceObject: {fileID: 0}
  m_PrefabInternal: {fileID: 0}
  m_GameObject: {fileID: 1077893744}
  m_Enabled: 1
  serializedVersion: 8
  m_Type: 1
  m_Color: {r: 1, g: 0.95686275, b: 0.8392157, a: 1}
  m_Intensity: 1
  m_Range: 10
  m_SpotAngle: 30
  m_CookieSize: 10
  m_Shadows:
    m_Type: 2
    m_Resolution: -1
    m_CustomResolution: -1
    m_Strength: 1
    m_Bias: 0.05
    m_NormalBias: 0.4
    m_NearPlane: 0.2
  m_Cookie: {fileID: 0}
  m_DrawHalo: 0
  m_Flare: {fileID: 0}
  m_RenderMode: 0
  m_CullingMask:
    serializedVersion: 2
    m_Bits: 1342177280
  m_Lightmapping: 4
  m_LightShadowCasterMode: 0
  m_AreaSize: {x: 1, y: 1}
  m_BounceIntensity: 1
  m_ColorTemperature: 6570
  m_UseColorTemperature: 0
  m_ShadowRadius: 0
  m_ShadowAngle: 0
--- !u!4 &1077893746
Transform:
  m_ObjectHideFlags: 0
  m_CorrespondingSourceObject: {fileID: 0}
  m_PrefabInternal: {fileID: 0}
  m_GameObject: {fileID: 1077893744}
  m_LocalRotation: {x: 0.18301274, y: 0.6830127, z: -0.18301274, w: 0.6830127}
  m_LocalPosition: {x: -18.35, y: 10.08, z: 0}
  m_LocalScale: {x: 1, y: 1, z: 1}
  m_Children: []
  m_Father: {fileID: 0}
  m_RootOrder: 0
  m_LocalEulerAnglesHint: {x: 30, y: 90, z: 0}
--- !u!1001 &1086624441
Prefab:
  m_ObjectHideFlags: 0
  serializedVersion: 2
  m_Modification:
    m_TransformParent: {fileID: 0}
    m_Modifications:
    - target: {fileID: 4272133756439694, guid: ac3b11ead5c5a4f709a2b78ff480716e, type: 2}
      propertyPath: m_LocalPosition.x
      value: 0
      objectReference: {fileID: 0}
    - target: {fileID: 4272133756439694, guid: ac3b11ead5c5a4f709a2b78ff480716e, type: 2}
      propertyPath: m_LocalPosition.y
      value: 0
      objectReference: {fileID: 0}
    - target: {fileID: 4272133756439694, guid: ac3b11ead5c5a4f709a2b78ff480716e, type: 2}
      propertyPath: m_LocalPosition.z
      value: 0
      objectReference: {fileID: 0}
    - target: {fileID: 4272133756439694, guid: ac3b11ead5c5a4f709a2b78ff480716e, type: 2}
      propertyPath: m_LocalRotation.x
      value: 0
      objectReference: {fileID: 0}
    - target: {fileID: 4272133756439694, guid: ac3b11ead5c5a4f709a2b78ff480716e, type: 2}
      propertyPath: m_LocalRotation.y
      value: 0
      objectReference: {fileID: 0}
    - target: {fileID: 4272133756439694, guid: ac3b11ead5c5a4f709a2b78ff480716e, type: 2}
      propertyPath: m_LocalRotation.z
      value: 0
      objectReference: {fileID: 0}
    - target: {fileID: 4272133756439694, guid: ac3b11ead5c5a4f709a2b78ff480716e, type: 2}
      propertyPath: m_LocalRotation.w
      value: 1
      objectReference: {fileID: 0}
    - target: {fileID: 4272133756439694, guid: ac3b11ead5c5a4f709a2b78ff480716e, type: 2}
      propertyPath: m_RootOrder
      value: 2
      objectReference: {fileID: 0}
    - target: {fileID: 1182585569876038, guid: ac3b11ead5c5a4f709a2b78ff480716e, type: 2}
      propertyPath: m_IsActive
      value: 1
      objectReference: {fileID: 0}
    - target: {fileID: 23997014721716208, guid: ac3b11ead5c5a4f709a2b78ff480716e,
        type: 2}
      propertyPath: m_ScaleInLightmap
      value: 2
      objectReference: {fileID: 0}
    - target: {fileID: 23734937056687032, guid: ac3b11ead5c5a4f709a2b78ff480716e,
        type: 2}
      propertyPath: m_CastShadows
      value: 1
      objectReference: {fileID: 0}
    - target: {fileID: 23494422747162926, guid: ac3b11ead5c5a4f709a2b78ff480716e,
        type: 2}
      propertyPath: m_CastShadows
      value: 1
      objectReference: {fileID: 0}
    - target: {fileID: 23997014721716208, guid: ac3b11ead5c5a4f709a2b78ff480716e,
        type: 2}
      propertyPath: m_CastShadows
      value: 1
      objectReference: {fileID: 0}
    - target: {fileID: 23666152977782112, guid: ac3b11ead5c5a4f709a2b78ff480716e,
        type: 2}
      propertyPath: m_CastShadows
      value: 1
      objectReference: {fileID: 0}
    - target: {fileID: 23158142084418680, guid: ac3b11ead5c5a4f709a2b78ff480716e,
        type: 2}
      propertyPath: m_CastShadows
      value: 1
      objectReference: {fileID: 0}
    - target: {fileID: 23630055543280240, guid: ac3b11ead5c5a4f709a2b78ff480716e,
        type: 2}
      propertyPath: m_CastShadows
      value: 1
      objectReference: {fileID: 0}
    - target: {fileID: 1182585569876038, guid: ac3b11ead5c5a4f709a2b78ff480716e, type: 2}
      propertyPath: m_Layer
      value: 29
      objectReference: {fileID: 0}
    - target: {fileID: 1538643852770066, guid: ac3b11ead5c5a4f709a2b78ff480716e, type: 2}
      propertyPath: m_Layer
      value: 29
      objectReference: {fileID: 0}
    - target: {fileID: 1380213591587012, guid: ac3b11ead5c5a4f709a2b78ff480716e, type: 2}
      propertyPath: m_Layer
      value: 29
      objectReference: {fileID: 0}
    - target: {fileID: 1171860350829608, guid: ac3b11ead5c5a4f709a2b78ff480716e, type: 2}
      propertyPath: m_Layer
      value: 29
      objectReference: {fileID: 0}
    - target: {fileID: 1939634435965212, guid: ac3b11ead5c5a4f709a2b78ff480716e, type: 2}
      propertyPath: m_Layer
      value: 29
      objectReference: {fileID: 0}
    - target: {fileID: 1357343397258348, guid: ac3b11ead5c5a4f709a2b78ff480716e, type: 2}
      propertyPath: m_Layer
      value: 29
      objectReference: {fileID: 0}
    - target: {fileID: 1693444073930208, guid: ac3b11ead5c5a4f709a2b78ff480716e, type: 2}
      propertyPath: m_Layer
      value: 29
      objectReference: {fileID: 0}
    - target: {fileID: 1659726514302612, guid: ac3b11ead5c5a4f709a2b78ff480716e, type: 2}
      propertyPath: m_Layer
      value: 29
      objectReference: {fileID: 0}
    - target: {fileID: 1354035022990892, guid: ac3b11ead5c5a4f709a2b78ff480716e, type: 2}
      propertyPath: m_Layer
      value: 29
      objectReference: {fileID: 0}
    m_RemovedComponents: []
  m_SourcePrefab: {fileID: 100100000, guid: ac3b11ead5c5a4f709a2b78ff480716e, type: 2}
  m_IsPrefabAsset: 0
--- !u!1001 &1116540162
Prefab:
  m_ObjectHideFlags: 0
  serializedVersion: 2
  m_Modification:
    m_TransformParent: {fileID: 0}
    m_Modifications:
    - target: {fileID: 4166908486328302, guid: 89ac7574574271d4e8c723922c328093, type: 2}
      propertyPath: m_LocalPosition.x
      value: -11
      objectReference: {fileID: 0}
    - target: {fileID: 4166908486328302, guid: 89ac7574574271d4e8c723922c328093, type: 2}
      propertyPath: m_LocalPosition.y
      value: 0
      objectReference: {fileID: 0}
    - target: {fileID: 4166908486328302, guid: 89ac7574574271d4e8c723922c328093, type: 2}
      propertyPath: m_LocalPosition.z
      value: -0.3
      objectReference: {fileID: 0}
    - target: {fileID: 4166908486328302, guid: 89ac7574574271d4e8c723922c328093, type: 2}
      propertyPath: m_LocalRotation.x
      value: 0
      objectReference: {fileID: 0}
    - target: {fileID: 4166908486328302, guid: 89ac7574574271d4e8c723922c328093, type: 2}
      propertyPath: m_LocalRotation.y
      value: 0
      objectReference: {fileID: 0}
    - target: {fileID: 4166908486328302, guid: 89ac7574574271d4e8c723922c328093, type: 2}
      propertyPath: m_LocalRotation.z
      value: 0
      objectReference: {fileID: 0}
    - target: {fileID: 4166908486328302, guid: 89ac7574574271d4e8c723922c328093, type: 2}
      propertyPath: m_LocalRotation.w
      value: 1
      objectReference: {fileID: 0}
    - target: {fileID: 4166908486328302, guid: 89ac7574574271d4e8c723922c328093, type: 2}
      propertyPath: m_RootOrder
      value: 15
      objectReference: {fileID: 0}
    - target: {fileID: 114116856560600076, guid: 89ac7574574271d4e8c723922c328093,
        type: 2}
      propertyPath: doorTransform
      value: 
      objectReference: {fileID: 372708933}
    - target: {fileID: 114186777795836332, guid: 89ac7574574271d4e8c723922c328093,
        type: 2}
      propertyPath: doorTransform
      value: 
      objectReference: {fileID: 269512146}
    - target: {fileID: 114116856560600076, guid: 89ac7574574271d4e8c723922c328093,
        type: 2}
      propertyPath: offset.z
      value: 2.25
      objectReference: {fileID: 0}
    m_RemovedComponents: []
  m_SourcePrefab: {fileID: 100100000, guid: 89ac7574574271d4e8c723922c328093, type: 2}
  m_IsPrefabAsset: 0
--- !u!1001 &1347289231
Prefab:
  m_ObjectHideFlags: 0
  serializedVersion: 2
  m_Modification:
    m_TransformParent: {fileID: 0}
    m_Modifications:
    - target: {fileID: 4876291307477804, guid: e94e35ac448aa8942ab9bb1dfcac5f8f, type: 2}
      propertyPath: m_LocalPosition.x
      value: 0
      objectReference: {fileID: 0}
    - target: {fileID: 4876291307477804, guid: e94e35ac448aa8942ab9bb1dfcac5f8f, type: 2}
      propertyPath: m_LocalPosition.y
      value: 0
      objectReference: {fileID: 0}
    - target: {fileID: 4876291307477804, guid: e94e35ac448aa8942ab9bb1dfcac5f8f, type: 2}
      propertyPath: m_LocalPosition.z
      value: 0
      objectReference: {fileID: 0}
    - target: {fileID: 4876291307477804, guid: e94e35ac448aa8942ab9bb1dfcac5f8f, type: 2}
      propertyPath: m_LocalRotation.x
      value: 0
      objectReference: {fileID: 0}
    - target: {fileID: 4876291307477804, guid: e94e35ac448aa8942ab9bb1dfcac5f8f, type: 2}
      propertyPath: m_LocalRotation.y
      value: 0
      objectReference: {fileID: 0}
    - target: {fileID: 4876291307477804, guid: e94e35ac448aa8942ab9bb1dfcac5f8f, type: 2}
      propertyPath: m_LocalRotation.z
      value: 0
      objectReference: {fileID: 0}
    - target: {fileID: 4876291307477804, guid: e94e35ac448aa8942ab9bb1dfcac5f8f, type: 2}
      propertyPath: m_LocalRotation.w
      value: 1
      objectReference: {fileID: 0}
    - target: {fileID: 4876291307477804, guid: e94e35ac448aa8942ab9bb1dfcac5f8f, type: 2}
      propertyPath: m_RootOrder
      value: 12
      objectReference: {fileID: 0}
    m_RemovedComponents: []
  m_SourcePrefab: {fileID: 100100000, guid: e94e35ac448aa8942ab9bb1dfcac5f8f, type: 2}
  m_IsPrefabAsset: 0
--- !u!1 &1602505217
GameObject:
  m_ObjectHideFlags: 0
  m_CorrespondingSourceObject: {fileID: 0}
  m_PrefabInternal: {fileID: 0}
  serializedVersion: 6
  m_Component:
  - component: {fileID: 1602505219}
  - component: {fileID: 1602505218}
  m_Layer: 8
  m_Name: PostProcessingGlobal
  m_TagString: Untagged
  m_Icon: {fileID: 0}
  m_NavMeshLayer: 0
  m_StaticEditorFlags: 0
  m_IsActive: 1
--- !u!114 &1602505218
MonoBehaviour:
  m_ObjectHideFlags: 0
  m_CorrespondingSourceObject: {fileID: 0}
  m_PrefabInternal: {fileID: 0}
  m_GameObject: {fileID: 1602505217}
  m_Enabled: 1
  m_EditorHideFlags: 0
  m_Script: {fileID: 11500000, guid: 8b9a305e18de0c04dbd257a21cd47087, type: 3}
  m_Name: 
  m_EditorClassIdentifier: 
  sharedProfile: {fileID: 11400000, guid: 818ad52f0054a04489c44e480a93aaf6, type: 2}
  isGlobal: 1
  blendDistance: 0
  weight: 1
  priority: 0
--- !u!4 &1602505219
Transform:
  m_ObjectHideFlags: 0
  m_CorrespondingSourceObject: {fileID: 0}
  m_PrefabInternal: {fileID: 0}
  m_GameObject: {fileID: 1602505217}
  m_LocalRotation: {x: 0, y: 0, z: 0, w: 1}
  m_LocalPosition: {x: 0, y: 0, z: 0}
  m_LocalScale: {x: 1, y: 1, z: 1}
  m_Children: []
  m_Father: {fileID: 0}
  m_RootOrder: 3
  m_LocalEulerAnglesHint: {x: 0, y: 0, z: 0}
--- !u!1 &1700791333
GameObject:
  m_ObjectHideFlags: 0
  m_CorrespondingSourceObject: {fileID: 1890672303155546, guid: 3f411b0f7c096164096a9a03c1be6732,
    type: 2}
  m_PrefabInternal: {fileID: 0}
  serializedVersion: 6
  m_Component:
  - component: {fileID: 1700791335}
  - component: {fileID: 1700791334}
  m_Layer: 0
  m_Name: FgBlastDoorSpotRealtime
  m_TagString: Untagged
  m_Icon: {fileID: 0}
  m_NavMeshLayer: 0
  m_StaticEditorFlags: 4294967295
  m_IsActive: 1
--- !u!108 &1700791334
Light:
  m_ObjectHideFlags: 0
  m_CorrespondingSourceObject: {fileID: 108163281684182622, guid: 3f411b0f7c096164096a9a03c1be6732,
    type: 2}
  m_PrefabInternal: {fileID: 0}
  m_GameObject: {fileID: 1700791333}
  m_Enabled: 1
  serializedVersion: 8
  m_Type: 0
  m_Color: {r: 0.63999647, g: 0.8737985, b: 0.9622642, a: 1}
  m_Intensity: 3
  m_Range: 15
  m_SpotAngle: 60
  m_CookieSize: 10
  m_Shadows:
    m_Type: 0
    m_Resolution: -1
    m_CustomResolution: -1
    m_Strength: 1
    m_Bias: 0.05
    m_NormalBias: 0.4
    m_NearPlane: 0.2
  m_Cookie: {fileID: 0}
  m_DrawHalo: 0
  m_Flare: {fileID: 0}
  m_RenderMode: 0
  m_CullingMask:
    serializedVersion: 2
    m_Bits: 268435968
  m_Lightmapping: 4
  m_LightShadowCasterMode: 0
  m_AreaSize: {x: 1, y: 1}
  m_BounceIntensity: 0
  m_ColorTemperature: 6570
  m_UseColorTemperature: 0
  m_ShadowRadius: 0
  m_ShadowAngle: 0
--- !u!4 &1700791335
Transform:
  m_ObjectHideFlags: 0
  m_CorrespondingSourceObject: {fileID: 4842085134100662, guid: 3f411b0f7c096164096a9a03c1be6732,
    type: 2}
  m_PrefabInternal: {fileID: 0}
  m_GameObject: {fileID: 1700791333}
  m_LocalRotation: {x: 0.5937009, y: 0.38408238, z: -0.5937009, w: 0.38408238}
  m_LocalPosition: {x: -13, y: 5, z: 0}
  m_LocalScale: {x: 1.250001, y: 0.100000165, z: 0.10000011}
  m_Children: []
  m_Father: {fileID: 0}
  m_RootOrder: 13
  m_LocalEulerAnglesHint: {x: 114.2, y: 0, z: 0}
--- !u!1001 &1881467666
Prefab:
  m_ObjectHideFlags: 0
  serializedVersion: 2
  m_Modification:
    m_TransformParent: {fileID: 0}
    m_Modifications:
    - target: {fileID: 4051753187159158, guid: 66f606c3eaad83d42ac8cade14adabbb, type: 2}
      propertyPath: m_LocalPosition.x
      value: 0
      objectReference: {fileID: 0}
    - target: {fileID: 4051753187159158, guid: 66f606c3eaad83d42ac8cade14adabbb, type: 2}
      propertyPath: m_LocalPosition.y
      value: 0
      objectReference: {fileID: 0}
    - target: {fileID: 4051753187159158, guid: 66f606c3eaad83d42ac8cade14adabbb, type: 2}
      propertyPath: m_LocalPosition.z
      value: 0
      objectReference: {fileID: 0}
    - target: {fileID: 4051753187159158, guid: 66f606c3eaad83d42ac8cade14adabbb, type: 2}
      propertyPath: m_LocalRotation.x
      value: -0
      objectReference: {fileID: 0}
    - target: {fileID: 4051753187159158, guid: 66f606c3eaad83d42ac8cade14adabbb, type: 2}
      propertyPath: m_LocalRotation.y
      value: -0
      objectReference: {fileID: 0}
    - target: {fileID: 4051753187159158, guid: 66f606c3eaad83d42ac8cade14adabbb, type: 2}
      propertyPath: m_LocalRotation.z
      value: -0
      objectReference: {fileID: 0}
    - target: {fileID: 4051753187159158, guid: 66f606c3eaad83d42ac8cade14adabbb, type: 2}
      propertyPath: m_LocalRotation.w
      value: 1
      objectReference: {fileID: 0}
    - target: {fileID: 4051753187159158, guid: 66f606c3eaad83d42ac8cade14adabbb, type: 2}
      propertyPath: m_RootOrder
      value: 11
      objectReference: {fileID: 0}
    - target: {fileID: 4582500135908816, guid: 66f606c3eaad83d42ac8cade14adabbb, type: 2}
      propertyPath: m_LocalPosition.x
      value: 0.05
      objectReference: {fileID: 0}
    - target: {fileID: 4582500135908816, guid: 66f606c3eaad83d42ac8cade14adabbb, type: 2}
      propertyPath: m_LocalPosition.z
      value: -0
      objectReference: {fileID: 0}
    - target: {fileID: 4872708590017196, guid: 66f606c3eaad83d42ac8cade14adabbb, type: 2}
      propertyPath: m_LocalPosition.x
      value: -0.05
      objectReference: {fileID: 0}
    - target: {fileID: 1588133523405574, guid: 66f606c3eaad83d42ac8cade14adabbb, type: 2}
      propertyPath: m_StaticEditorFlags
      value: 0
      objectReference: {fileID: 0}
    - target: {fileID: 1613047505741644, guid: 66f606c3eaad83d42ac8cade14adabbb, type: 2}
      propertyPath: m_StaticEditorFlags
      value: 0
      objectReference: {fileID: 0}
    - target: {fileID: 1668065225537230, guid: 66f606c3eaad83d42ac8cade14adabbb, type: 2}
      propertyPath: m_StaticEditorFlags
      value: 0
      objectReference: {fileID: 0}
    - target: {fileID: 1691827834452834, guid: 66f606c3eaad83d42ac8cade14adabbb, type: 2}
      propertyPath: m_StaticEditorFlags
      value: 0
      objectReference: {fileID: 0}
    - target: {fileID: 1531114597966790, guid: 66f606c3eaad83d42ac8cade14adabbb, type: 2}
      propertyPath: m_StaticEditorFlags
      value: 0
      objectReference: {fileID: 0}
    - target: {fileID: 1338656909569184, guid: 66f606c3eaad83d42ac8cade14adabbb, type: 2}
      propertyPath: m_StaticEditorFlags
      value: 0
      objectReference: {fileID: 0}
    - target: {fileID: 1691827834452834, guid: 66f606c3eaad83d42ac8cade14adabbb, type: 2}
      propertyPath: m_Layer
      value: 28
      objectReference: {fileID: 0}
    - target: {fileID: 1338656909569184, guid: 66f606c3eaad83d42ac8cade14adabbb, type: 2}
      propertyPath: m_Layer
      value: 28
      objectReference: {fileID: 0}
    - target: {fileID: 1531114597966790, guid: 66f606c3eaad83d42ac8cade14adabbb, type: 2}
      propertyPath: m_Layer
      value: 28
      objectReference: {fileID: 0}
    - target: {fileID: 1613047505741644, guid: 66f606c3eaad83d42ac8cade14adabbb, type: 2}
      propertyPath: m_Layer
      value: 28
      objectReference: {fileID: 0}
    - target: {fileID: 1668065225537230, guid: 66f606c3eaad83d42ac8cade14adabbb, type: 2}
      propertyPath: m_Layer
      value: 28
      objectReference: {fileID: 0}
    - target: {fileID: 1588133523405574, guid: 66f606c3eaad83d42ac8cade14adabbb, type: 2}
      propertyPath: m_Layer
      value: 28
      objectReference: {fileID: 0}
    - target: {fileID: 23283584654751652, guid: 66f606c3eaad83d42ac8cade14adabbb,
        type: 2}
      propertyPath: m_CastShadows
      value: 1
      objectReference: {fileID: 0}
    - target: {fileID: 23048393114119484, guid: 66f606c3eaad83d42ac8cade14adabbb,
        type: 2}
      propertyPath: m_CastShadows
      value: 1
      objectReference: {fileID: 0}
    - target: {fileID: 1005449282018754, guid: 66f606c3eaad83d42ac8cade14adabbb, type: 2}
      propertyPath: m_Layer
      value: 30
      objectReference: {fileID: 0}
    - target: {fileID: 1862945713137466, guid: 66f606c3eaad83d42ac8cade14adabbb, type: 2}
      propertyPath: m_Layer
      value: 30
      objectReference: {fileID: 0}
    - target: {fileID: 1523861285329004, guid: 66f606c3eaad83d42ac8cade14adabbb, type: 2}
      propertyPath: m_Layer
      value: 30
      objectReference: {fileID: 0}
    - target: {fileID: 1557607743570558, guid: 66f606c3eaad83d42ac8cade14adabbb, type: 2}
      propertyPath: m_Layer
      value: 28
      objectReference: {fileID: 0}
    m_RemovedComponents: []
  m_SourcePrefab: {fileID: 100100000, guid: 66f606c3eaad83d42ac8cade14adabbb, type: 2}
  m_IsPrefabAsset: 0
--- !u!1001 &1970213529
Prefab:
  m_ObjectHideFlags: 0
  serializedVersion: 2
  m_Modification:
    m_TransformParent: {fileID: 0}
    m_Modifications:
    - target: {fileID: 4916218283271522, guid: 9352c5bd56ee6a24aa18b7f64958511c, type: 2}
      propertyPath: m_LocalPosition.x
      value: 0
      objectReference: {fileID: 0}
    - target: {fileID: 4916218283271522, guid: 9352c5bd56ee6a24aa18b7f64958511c, type: 2}
      propertyPath: m_LocalPosition.y
      value: 0
      objectReference: {fileID: 0}
    - target: {fileID: 4916218283271522, guid: 9352c5bd56ee6a24aa18b7f64958511c, type: 2}
      propertyPath: m_LocalPosition.z
      value: 0
      objectReference: {fileID: 0}
    - target: {fileID: 4916218283271522, guid: 9352c5bd56ee6a24aa18b7f64958511c, type: 2}
      propertyPath: m_LocalRotation.x
      value: -0
      objectReference: {fileID: 0}
    - target: {fileID: 4916218283271522, guid: 9352c5bd56ee6a24aa18b7f64958511c, type: 2}
      propertyPath: m_LocalRotation.y
      value: -0
      objectReference: {fileID: 0}
    - target: {fileID: 4916218283271522, guid: 9352c5bd56ee6a24aa18b7f64958511c, type: 2}
      propertyPath: m_LocalRotation.z
      value: -0
      objectReference: {fileID: 0}
    - target: {fileID: 4916218283271522, guid: 9352c5bd56ee6a24aa18b7f64958511c, type: 2}
      propertyPath: m_LocalRotation.w
      value: 1
      objectReference: {fileID: 0}
    - target: {fileID: 4916218283271522, guid: 9352c5bd56ee6a24aa18b7f64958511c, type: 2}
      propertyPath: m_RootOrder
      value: 8
      objectReference: {fileID: 0}
    - target: {fileID: 1203872663683004, guid: 9352c5bd56ee6a24aa18b7f64958511c, type: 2}
      propertyPath: m_IsActive
      value: 1
      objectReference: {fileID: 0}
    m_RemovedComponents: []
  m_SourcePrefab: {fileID: 100100000, guid: 9352c5bd56ee6a24aa18b7f64958511c, type: 2}
  m_IsPrefabAsset: 0
