%YAML 1.1
%TAG !u! tag:unity3d.com,2011:
--- !u!29 &1
OcclusionCullingSettings:
  m_ObjectHideFlags: 0
  serializedVersion: 2
  m_OcclusionBakeSettings:
    smallestOccluder: 5
    smallestHole: 0.25
    backfaceThreshold: 100
  m_SceneGUID: 00000000000000000000000000000000
  m_OcclusionCullingData: {fileID: 0}
--- !u!104 &2
RenderSettings:
  m_ObjectHideFlags: 0
  serializedVersion: 9
  m_Fog: 0
  m_FogColor: {r: 0.5, g: 0.5, b: 0.5, a: 1}
  m_FogMode: 3
  m_FogDensity: 0.01
  m_LinearFogStart: 0
  m_LinearFogEnd: 300
  m_AmbientSkyColor: {r: 0.212, g: 0.227, b: 0.259, a: 1}
  m_AmbientEquatorColor: {r: 0.114, g: 0.125, b: 0.133, a: 1}
  m_AmbientGroundColor: {r: 0.047, g: 0.043, b: 0.035, a: 1}
  m_AmbientIntensity: 1
  m_AmbientMode: 0
  m_SubtractiveShadowColor: {r: 0.42, g: 0.478, b: 0.627, a: 1}
  m_SkyboxMaterial: {fileID: 10304, guid: 0000000000000000f000000000000000, type: 0}
  m_HaloStrength: 0.5
  m_FlareStrength: 1
  m_FlareFadeSpeed: 3
  m_HaloTexture: {fileID: 0}
  m_SpotCookie: {fileID: 10001, guid: 0000000000000000e000000000000000, type: 0}
  m_DefaultReflectionMode: 0
  m_DefaultReflectionResolution: 128
  m_ReflectionBounces: 1
  m_ReflectionIntensity: 0
  m_CustomReflection: {fileID: 0}
  m_Sun: {fileID: 0}
  m_IndirectSpecularColor: {r: 0, g: 0, b: 0, a: 0}
  m_UseRadianceAmbientProbe: 0
--- !u!157 &3
LightmapSettings:
  m_ObjectHideFlags: 0
  serializedVersion: 11
  m_GIWorkflowMode: 1
  m_GISettings:
    serializedVersion: 2
    m_BounceScale: 1
    m_IndirectOutputScale: 1
    m_AlbedoBoost: 1
    m_TemporalCoherenceThreshold: 1
    m_EnvironmentLightingMode: 0
    m_EnableBakedLightmaps: 1
    m_EnableRealtimeLightmaps: 0
  m_LightmapEditorSettings:
    serializedVersion: 10
    m_Resolution: 2
    m_BakeResolution: 40
    m_AtlasSize: 1024
    m_AO: 0
    m_AOMaxDistance: 1
    m_CompAOExponent: 1
    m_CompAOExponentDirect: 0
    m_Padding: 25
    m_LightmapParameters: {fileID: 0}
    m_LightmapsBakeMode: 1
    m_TextureCompression: 0
    m_FinalGather: 0
    m_FinalGatherFiltering: 1
    m_FinalGatherRayCount: 256
    m_ReflectionCompression: 2
    m_MixedBakeMode: 0
    m_BakeBackend: 1
    m_PVRSampling: 1
    m_PVRDirectSampleCount: 100
    m_PVRSampleCount: 200
    m_PVRBounces: 2
    m_PVRFilterTypeDirect: 0
    m_PVRFilterTypeIndirect: 0
    m_PVRFilterTypeAO: 0
    m_PVRFilteringMode: 1
    m_PVRCulling: 1
    m_PVRFilteringGaussRadiusDirect: 1
    m_PVRFilteringGaussRadiusIndirect: 5
    m_PVRFilteringGaussRadiusAO: 2
    m_PVRFilteringAtrousPositionSigmaDirect: 0.5
    m_PVRFilteringAtrousPositionSigmaIndirect: 2
    m_PVRFilteringAtrousPositionSigmaAO: 1
    m_ShowResolutionOverlay: 1
  m_LightingDataAsset: {fileID: 112000002, guid: 5e2d5c2b0536e7f41b14c6c031d1f024,
    type: 2}
  m_UseShadowmask: 0
--- !u!196 &4
NavMeshSettings:
  serializedVersion: 2
  m_ObjectHideFlags: 0
  m_BuildSettings:
    serializedVersion: 2
    agentTypeID: 0
    agentRadius: 0.5
    agentHeight: 2
    agentSlope: 45
    agentClimb: 0.4
    ledgeDropHeight: 0
    maxJumpAcrossDistance: 0
    minRegionArea: 2
    manualCellSize: 0
    cellSize: 0.16666667
    manualTileSize: 0
    tileSize: 256
    accuratePlacement: 0
    debug:
      m_Flags: 0
  m_NavMeshData: {fileID: 0}
--- !u!1001 &78485387
Prefab:
  m_ObjectHideFlags: 0
  serializedVersion: 2
  m_Modification:
    m_TransformParent: {fileID: 0}
    m_Modifications:
    - target: {fileID: 4362558282196814, guid: adcc0933a8f220d4895507bdad73ba9a, type: 2}
      propertyPath: m_LocalPosition.x
      value: 0
      objectReference: {fileID: 0}
    - target: {fileID: 4362558282196814, guid: adcc0933a8f220d4895507bdad73ba9a, type: 2}
      propertyPath: m_LocalPosition.y
      value: 0
      objectReference: {fileID: 0}
    - target: {fileID: 4362558282196814, guid: adcc0933a8f220d4895507bdad73ba9a, type: 2}
      propertyPath: m_LocalPosition.z
      value: 0
      objectReference: {fileID: 0}
    - target: {fileID: 4362558282196814, guid: adcc0933a8f220d4895507bdad73ba9a, type: 2}
      propertyPath: m_LocalRotation.x
      value: 0
      objectReference: {fileID: 0}
    - target: {fileID: 4362558282196814, guid: adcc0933a8f220d4895507bdad73ba9a, type: 2}
      propertyPath: m_LocalRotation.y
      value: 0
      objectReference: {fileID: 0}
    - target: {fileID: 4362558282196814, guid: adcc0933a8f220d4895507bdad73ba9a, type: 2}
      propertyPath: m_LocalRotation.z
      value: 0
      objectReference: {fileID: 0}
    - target: {fileID: 4362558282196814, guid: adcc0933a8f220d4895507bdad73ba9a, type: 2}
      propertyPath: m_LocalRotation.w
      value: 1
      objectReference: {fileID: 0}
    - target: {fileID: 4362558282196814, guid: adcc0933a8f220d4895507bdad73ba9a, type: 2}
      propertyPath: m_RootOrder
      value: 2
      objectReference: {fileID: 0}
    - target: {fileID: 1026292039256996, guid: adcc0933a8f220d4895507bdad73ba9a, type: 2}
      propertyPath: m_IsActive
      value: 0
      objectReference: {fileID: 0}
    m_RemovedComponents: []
  m_SourcePrefab: {fileID: 100100000, guid: adcc0933a8f220d4895507bdad73ba9a, type: 2}
  m_IsPrefabAsset: 0
--- !u!1001 &84526200
Prefab:
  m_ObjectHideFlags: 0
  serializedVersion: 2
  m_Modification:
    m_TransformParent: {fileID: 0}
    m_Modifications:
    - target: {fileID: 4090848141208700, guid: c11770e54c88bfb409bb6f66fac011f3, type: 2}
      propertyPath: m_LocalPosition.x
      value: 0
      objectReference: {fileID: 0}
    - target: {fileID: 4090848141208700, guid: c11770e54c88bfb409bb6f66fac011f3, type: 2}
      propertyPath: m_LocalPosition.y
      value: 0
      objectReference: {fileID: 0}
    - target: {fileID: 4090848141208700, guid: c11770e54c88bfb409bb6f66fac011f3, type: 2}
      propertyPath: m_LocalPosition.z
      value: 0
      objectReference: {fileID: 0}
    - target: {fileID: 4090848141208700, guid: c11770e54c88bfb409bb6f66fac011f3, type: 2}
      propertyPath: m_LocalRotation.x
      value: 0
      objectReference: {fileID: 0}
    - target: {fileID: 4090848141208700, guid: c11770e54c88bfb409bb6f66fac011f3, type: 2}
      propertyPath: m_LocalRotation.y
      value: 0
      objectReference: {fileID: 0}
    - target: {fileID: 4090848141208700, guid: c11770e54c88bfb409bb6f66fac011f3, type: 2}
      propertyPath: m_LocalRotation.z
      value: 0
      objectReference: {fileID: 0}
    - target: {fileID: 4090848141208700, guid: c11770e54c88bfb409bb6f66fac011f3, type: 2}
      propertyPath: m_LocalRotation.w
      value: 1
      objectReference: {fileID: 0}
    - target: {fileID: 4090848141208700, guid: c11770e54c88bfb409bb6f66fac011f3, type: 2}
      propertyPath: m_RootOrder
      value: 13
      objectReference: {fileID: 0}
    - target: {fileID: 1204731589654820, guid: c11770e54c88bfb409bb6f66fac011f3, type: 2}
      propertyPath: m_IsActive
      value: 0
      objectReference: {fileID: 0}
    m_RemovedComponents: []
  m_SourcePrefab: {fileID: 100100000, guid: c11770e54c88bfb409bb6f66fac011f3, type: 2}
  m_IsPrefabAsset: 0
--- !u!1001 &97081777
Prefab:
  m_ObjectHideFlags: 0
  serializedVersion: 2
  m_Modification:
    m_TransformParent: {fileID: 0}
    m_Modifications:
    - target: {fileID: 4786038410361560, guid: 83d56d18e3b8e7947882159e8020ba07, type: 2}
      propertyPath: m_LocalPosition.x
      value: 0
      objectReference: {fileID: 0}
    - target: {fileID: 4786038410361560, guid: 83d56d18e3b8e7947882159e8020ba07, type: 2}
      propertyPath: m_LocalPosition.y
      value: 0
      objectReference: {fileID: 0}
    - target: {fileID: 4786038410361560, guid: 83d56d18e3b8e7947882159e8020ba07, type: 2}
      propertyPath: m_LocalPosition.z
      value: 0
      objectReference: {fileID: 0}
    - target: {fileID: 4786038410361560, guid: 83d56d18e3b8e7947882159e8020ba07, type: 2}
      propertyPath: m_LocalRotation.x
      value: 0
      objectReference: {fileID: 0}
    - target: {fileID: 4786038410361560, guid: 83d56d18e3b8e7947882159e8020ba07, type: 2}
      propertyPath: m_LocalRotation.y
      value: 0
      objectReference: {fileID: 0}
    - target: {fileID: 4786038410361560, guid: 83d56d18e3b8e7947882159e8020ba07, type: 2}
      propertyPath: m_LocalRotation.z
      value: 0
      objectReference: {fileID: 0}
    - target: {fileID: 4786038410361560, guid: 83d56d18e3b8e7947882159e8020ba07, type: 2}
      propertyPath: m_LocalRotation.w
      value: 1
      objectReference: {fileID: 0}
    - target: {fileID: 4786038410361560, guid: 83d56d18e3b8e7947882159e8020ba07, type: 2}
      propertyPath: m_RootOrder
      value: 12
      objectReference: {fileID: 0}
    - target: {fileID: 1665748426615252, guid: 83d56d18e3b8e7947882159e8020ba07, type: 2}
      propertyPath: m_Layer
      value: 30
      objectReference: {fileID: 0}
    - target: {fileID: 1162942520724572, guid: 83d56d18e3b8e7947882159e8020ba07, type: 2}
      propertyPath: m_Layer
      value: 30
      objectReference: {fileID: 0}
    - target: {fileID: 1430560895891048, guid: 83d56d18e3b8e7947882159e8020ba07, type: 2}
      propertyPath: m_Layer
      value: 30
      objectReference: {fileID: 0}
    - target: {fileID: 1367035730114276, guid: 83d56d18e3b8e7947882159e8020ba07, type: 2}
      propertyPath: m_Layer
      value: 30
      objectReference: {fileID: 0}
    - target: {fileID: 1944170624026984, guid: 83d56d18e3b8e7947882159e8020ba07, type: 2}
      propertyPath: m_Layer
      value: 30
      objectReference: {fileID: 0}
    - target: {fileID: 4821662536686724, guid: 83d56d18e3b8e7947882159e8020ba07, type: 2}
      propertyPath: m_LocalScale.y
      value: 9.5
      objectReference: {fileID: 0}
    - target: {fileID: 4821662536686724, guid: 83d56d18e3b8e7947882159e8020ba07, type: 2}
      propertyPath: m_LocalScale.z
      value: 3
      objectReference: {fileID: 0}
    - target: {fileID: 4821662536686724, guid: 83d56d18e3b8e7947882159e8020ba07, type: 2}
      propertyPath: m_LocalPosition.z
      value: -4.6
      objectReference: {fileID: 0}
    - target: {fileID: 4821662536686724, guid: 83d56d18e3b8e7947882159e8020ba07, type: 2}
      propertyPath: m_LocalScale.x
      value: 1.5
      objectReference: {fileID: 0}
    m_RemovedComponents: []
  m_SourcePrefab: {fileID: 100100000, guid: 83d56d18e3b8e7947882159e8020ba07, type: 2}
  m_IsPrefabAsset: 0
--- !u!1001 &149137477
Prefab:
  m_ObjectHideFlags: 0
  serializedVersion: 2
  m_Modification:
    m_TransformParent: {fileID: 0}
    m_Modifications:
    - target: {fileID: 4087534940464994, guid: be2baeb07e2e0a74eba7350cf89061a8, type: 2}
      propertyPath: m_LocalPosition.x
      value: 0
      objectReference: {fileID: 0}
    - target: {fileID: 4087534940464994, guid: be2baeb07e2e0a74eba7350cf89061a8, type: 2}
      propertyPath: m_LocalPosition.y
      value: 0
      objectReference: {fileID: 0}
    - target: {fileID: 4087534940464994, guid: be2baeb07e2e0a74eba7350cf89061a8, type: 2}
      propertyPath: m_LocalPosition.z
      value: 0
      objectReference: {fileID: 0}
    - target: {fileID: 4087534940464994, guid: be2baeb07e2e0a74eba7350cf89061a8, type: 2}
      propertyPath: m_LocalRotation.x
      value: 0
      objectReference: {fileID: 0}
    - target: {fileID: 4087534940464994, guid: be2baeb07e2e0a74eba7350cf89061a8, type: 2}
      propertyPath: m_LocalRotation.y
      value: 0
      objectReference: {fileID: 0}
    - target: {fileID: 4087534940464994, guid: be2baeb07e2e0a74eba7350cf89061a8, type: 2}
      propertyPath: m_LocalRotation.z
      value: 0
      objectReference: {fileID: 0}
    - target: {fileID: 4087534940464994, guid: be2baeb07e2e0a74eba7350cf89061a8, type: 2}
      propertyPath: m_LocalRotation.w
      value: 1
      objectReference: {fileID: 0}
    - target: {fileID: 4087534940464994, guid: be2baeb07e2e0a74eba7350cf89061a8, type: 2}
      propertyPath: m_RootOrder
      value: 3
      objectReference: {fileID: 0}
    - target: {fileID: 1204786614005256, guid: be2baeb07e2e0a74eba7350cf89061a8, type: 2}
      propertyPath: m_IsActive
      value: 0
      objectReference: {fileID: 0}
    m_RemovedComponents: []
  m_SourcePrefab: {fileID: 100100000, guid: be2baeb07e2e0a74eba7350cf89061a8, type: 2}
  m_IsPrefabAsset: 0
--- !u!4 &269512146 stripped
Transform:
  m_CorrespondingSourceObject: {fileID: 4872708590017196, guid: 66f606c3eaad83d42ac8cade14adabbb,
    type: 2}
  m_PrefabInternal: {fileID: 1881467666}
--- !u!1001 &322370153
Prefab:
  m_ObjectHideFlags: 0
  serializedVersion: 2
  m_Modification:
    m_TransformParent: {fileID: 0}
    m_Modifications:
    - target: {fileID: 4654148395871234, guid: 5d3871411c8d5f4428e82e1307804173, type: 2}
      propertyPath: m_LocalPosition.x
      value: 0
      objectReference: {fileID: 0}
    - target: {fileID: 4654148395871234, guid: 5d3871411c8d5f4428e82e1307804173, type: 2}
      propertyPath: m_LocalPosition.y
      value: 0
      objectReference: {fileID: 0}
    - target: {fileID: 4654148395871234, guid: 5d3871411c8d5f4428e82e1307804173, type: 2}
      propertyPath: m_LocalPosition.z
      value: 0
      objectReference: {fileID: 0}
    - target: {fileID: 4654148395871234, guid: 5d3871411c8d5f4428e82e1307804173, type: 2}
      propertyPath: m_LocalRotation.x
      value: -0
      objectReference: {fileID: 0}
    - target: {fileID: 4654148395871234, guid: 5d3871411c8d5f4428e82e1307804173, type: 2}
      propertyPath: m_LocalRotation.y
      value: -0
      objectReference: {fileID: 0}
    - target: {fileID: 4654148395871234, guid: 5d3871411c8d5f4428e82e1307804173, type: 2}
      propertyPath: m_LocalRotation.z
      value: -0
      objectReference: {fileID: 0}
    - target: {fileID: 4654148395871234, guid: 5d3871411c8d5f4428e82e1307804173, type: 2}
      propertyPath: m_LocalRotation.w
      value: 1
      objectReference: {fileID: 0}
    - target: {fileID: 4654148395871234, guid: 5d3871411c8d5f4428e82e1307804173, type: 2}
      propertyPath: m_RootOrder
      value: 26
      objectReference: {fileID: 0}
    - target: {fileID: 1731256093860370, guid: 5d3871411c8d5f4428e82e1307804173, type: 2}
      propertyPath: m_IsActive
      value: 1
      objectReference: {fileID: 0}
    m_RemovedComponents: []
  m_SourcePrefab: {fileID: 100100000, guid: 5d3871411c8d5f4428e82e1307804173, type: 2}
  m_IsPrefabAsset: 0
--- !u!1 &341758717
GameObject:
  m_ObjectHideFlags: 0
  m_CorrespondingSourceObject: {fileID: 0}
  m_PrefabInternal: {fileID: 0}
  serializedVersion: 6
  m_Component:
  - component: {fileID: 341758721}
  - component: {fileID: 341758720}
  - component: {fileID: 341758719}
  - component: {fileID: 341758718}
  m_Layer: 0
  m_Name: ReflectiveSphere
  m_TagString: Untagged
  m_Icon: {fileID: 0}
  m_NavMeshLayer: 0
  m_StaticEditorFlags: 0
  m_IsActive: 0
--- !u!135 &341758718
SphereCollider:
  m_ObjectHideFlags: 0
  m_CorrespondingSourceObject: {fileID: 0}
  m_PrefabInternal: {fileID: 0}
  m_GameObject: {fileID: 341758717}
  m_Material: {fileID: 0}
  m_IsTrigger: 0
  m_Enabled: 1
  serializedVersion: 2
  m_Radius: 0.5
  m_Center: {x: 0, y: 0, z: 0}
--- !u!23 &341758719
MeshRenderer:
  m_ObjectHideFlags: 0
  m_CorrespondingSourceObject: {fileID: 0}
  m_PrefabInternal: {fileID: 0}
  m_GameObject: {fileID: 341758717}
  m_Enabled: 1
  m_CastShadows: 1
  m_ReceiveShadows: 1
  m_DynamicOccludee: 1
  m_MotionVectors: 1
  m_LightProbeUsage: 1
  m_ReflectionProbeUsage: 1
  m_RenderingLayerMask: 4294967295
  m_Materials:
  - {fileID: 2100000, guid: 3837079743d34498cb4df21ad5165429, type: 2}
  m_StaticBatchInfo:
    firstSubMesh: 0
    subMeshCount: 0
  m_StaticBatchRoot: {fileID: 0}
  m_ProbeAnchor: {fileID: 0}
  m_LightProbeVolumeOverride: {fileID: 0}
  m_ScaleInLightmap: 1
  m_PreserveUVs: 0
  m_IgnoreNormalsForChartDetection: 0
  m_ImportantGI: 0
  m_StitchLightmapSeams: 0
  m_SelectedEditorRenderState: 3
  m_MinimumChartSize: 4
  m_AutoUVMaxDistance: 0.5
  m_AutoUVMaxAngle: 89
  m_LightmapParameters: {fileID: 0}
  m_SortingLayerID: 0
  m_SortingLayer: 0
  m_SortingOrder: 0
--- !u!33 &341758720
MeshFilter:
  m_ObjectHideFlags: 0
  m_CorrespondingSourceObject: {fileID: 0}
  m_PrefabInternal: {fileID: 0}
  m_GameObject: {fileID: 341758717}
  m_Mesh: {fileID: 10207, guid: 0000000000000000e000000000000000, type: 0}
--- !u!4 &341758721
Transform:
  m_ObjectHideFlags: 0
  m_CorrespondingSourceObject: {fileID: 0}
  m_PrefabInternal: {fileID: 0}
  m_GameObject: {fileID: 341758717}
  m_LocalRotation: {x: -0, y: -0.7071068, z: -0, w: -0.7071068}
  m_LocalPosition: {x: -0.029999737, y: 0.04, z: 2.870001}
  m_LocalScale: {x: 1, y: 1, z: 1}
  m_Children:
  - {fileID: 1346090322}
  m_Father: {fileID: 1871878614}
  m_RootOrder: 1
  m_LocalEulerAnglesHint: {x: 0, y: 0, z: 0}
--- !u!1 &371832772
GameObject:
  m_ObjectHideFlags: 0
  m_CorrespondingSourceObject: {fileID: 0}
  m_PrefabInternal: {fileID: 0}
  serializedVersion: 6
  m_Component:
  - component: {fileID: 371832776}
  - component: {fileID: 371832775}
  - component: {fileID: 371832774}
  - component: {fileID: 371832773}
  m_Layer: 30
  m_Name: PlasticSphereDynamic
  m_TagString: Untagged
  m_Icon: {fileID: 0}
  m_NavMeshLayer: 0
  m_StaticEditorFlags: 0
  m_IsActive: 1
--- !u!135 &371832773
SphereCollider:
  m_ObjectHideFlags: 0
  m_CorrespondingSourceObject: {fileID: 0}
  m_PrefabInternal: {fileID: 0}
  m_GameObject: {fileID: 371832772}
  m_Material: {fileID: 0}
  m_IsTrigger: 0
  m_Enabled: 1
  serializedVersion: 2
  m_Radius: 0.5
  m_Center: {x: 0, y: 0, z: 0}
--- !u!23 &371832774
MeshRenderer:
  m_ObjectHideFlags: 0
  m_CorrespondingSourceObject: {fileID: 0}
  m_PrefabInternal: {fileID: 0}
  m_GameObject: {fileID: 371832772}
  m_Enabled: 1
  m_CastShadows: 1
  m_ReceiveShadows: 1
  m_DynamicOccludee: 1
  m_MotionVectors: 1
  m_LightProbeUsage: 1
  m_ReflectionProbeUsage: 1
  m_RenderingLayerMask: 4294967295
  m_Materials:
  - {fileID: 2100000, guid: 958abb01761e1dc4ebf9ffdf8252d20e, type: 2}
  m_StaticBatchInfo:
    firstSubMesh: 0
    subMeshCount: 0
  m_StaticBatchRoot: {fileID: 0}
  m_ProbeAnchor: {fileID: 0}
  m_LightProbeVolumeOverride: {fileID: 0}
  m_ScaleInLightmap: 1
  m_PreserveUVs: 0
  m_IgnoreNormalsForChartDetection: 0
  m_ImportantGI: 0
  m_StitchLightmapSeams: 0
  m_SelectedEditorRenderState: 3
  m_MinimumChartSize: 4
  m_AutoUVMaxDistance: 0.5
  m_AutoUVMaxAngle: 89
  m_LightmapParameters: {fileID: 0}
  m_SortingLayerID: 0
  m_SortingLayer: 0
  m_SortingOrder: 0
--- !u!33 &371832775
MeshFilter:
  m_ObjectHideFlags: 0
  m_CorrespondingSourceObject: {fileID: 0}
  m_PrefabInternal: {fileID: 0}
  m_GameObject: {fileID: 371832772}
  m_Mesh: {fileID: 10207, guid: 0000000000000000e000000000000000, type: 0}
--- !u!4 &371832776
Transform:
  m_ObjectHideFlags: 0
  m_CorrespondingSourceObject: {fileID: 0}
  m_PrefabInternal: {fileID: 0}
  m_GameObject: {fileID: 371832772}
  m_LocalRotation: {x: 0, y: 0, z: 0, w: 1}
  m_LocalPosition: {x: -13, y: 0.5, z: -1}
  m_LocalScale: {x: 1, y: 1, z: 1}
  m_Children: []
  m_Father: {fileID: 0}
  m_RootOrder: 16
  m_LocalEulerAnglesHint: {x: 0, y: 0, z: 0}
--- !u!4 &372708933 stripped
Transform:
  m_CorrespondingSourceObject: {fileID: 4582500135908816, guid: 66f606c3eaad83d42ac8cade14adabbb,
    type: 2}
  m_PrefabInternal: {fileID: 1881467666}
--- !u!1001 &456390964
Prefab:
  m_ObjectHideFlags: 0
  serializedVersion: 2
  m_Modification:
    m_TransformParent: {fileID: 0}
    m_Modifications:
    - target: {fileID: 400000, guid: 5e9e851c0e142814dac026a256ba2ac0, type: 2}
      propertyPath: m_LocalPosition.x
      value: -9
      objectReference: {fileID: 0}
    - target: {fileID: 400000, guid: 5e9e851c0e142814dac026a256ba2ac0, type: 2}
      propertyPath: m_LocalPosition.y
      value: 1
      objectReference: {fileID: 0}
    - target: {fileID: 400000, guid: 5e9e851c0e142814dac026a256ba2ac0, type: 2}
      propertyPath: m_LocalPosition.z
      value: 0
      objectReference: {fileID: 0}
    - target: {fileID: 400000, guid: 5e9e851c0e142814dac026a256ba2ac0, type: 2}
      propertyPath: m_LocalRotation.x
      value: 0
      objectReference: {fileID: 0}
    - target: {fileID: 400000, guid: 5e9e851c0e142814dac026a256ba2ac0, type: 2}
      propertyPath: m_LocalRotation.y
      value: 0.7071068
      objectReference: {fileID: 0}
    - target: {fileID: 400000, guid: 5e9e851c0e142814dac026a256ba2ac0, type: 2}
      propertyPath: m_LocalRotation.z
      value: -0
      objectReference: {fileID: 0}
    - target: {fileID: 400000, guid: 5e9e851c0e142814dac026a256ba2ac0, type: 2}
      propertyPath: m_LocalRotation.w
      value: -0.7071068
      objectReference: {fileID: 0}
    - target: {fileID: 400000, guid: 5e9e851c0e142814dac026a256ba2ac0, type: 2}
      propertyPath: m_RootOrder
      value: 8
      objectReference: {fileID: 0}
    - target: {fileID: 400000, guid: 5e9e851c0e142814dac026a256ba2ac0, type: 2}
      propertyPath: m_LocalEulerAnglesHint.x
      value: 0
      objectReference: {fileID: 0}
    - target: {fileID: 400000, guid: 5e9e851c0e142814dac026a256ba2ac0, type: 2}
      propertyPath: m_LocalEulerAnglesHint.y
      value: 270
      objectReference: {fileID: 0}
    - target: {fileID: 2000000, guid: 5e9e851c0e142814dac026a256ba2ac0, type: 2}
      propertyPath: m_ForceIntoRT
      value: 1
      objectReference: {fileID: 0}
    - target: {fileID: 2000000, guid: 5e9e851c0e142814dac026a256ba2ac0, type: 2}
      propertyPath: m_HDR
      value: 1
      objectReference: {fileID: 0}
    - target: {fileID: 2000000, guid: 5e9e851c0e142814dac026a256ba2ac0, type: 2}
      propertyPath: m_AllowMSAA
      value: 0
      objectReference: {fileID: 0}
    - target: {fileID: 2000000, guid: 5e9e851c0e142814dac026a256ba2ac0, type: 2}
      propertyPath: m_RenderingPath
      value: 3
      objectReference: {fileID: 0}
    m_RemovedComponents: []
  m_SourcePrefab: {fileID: 100100000, guid: 5e9e851c0e142814dac026a256ba2ac0, type: 2}
  m_IsPrefabAsset: 0
--- !u!1 &489461615
GameObject:
  m_ObjectHideFlags: 0
  m_CorrespondingSourceObject: {fileID: 0}
  m_PrefabInternal: {fileID: 0}
  serializedVersion: 6
  m_Component:
  - component: {fileID: 489461619}
  - component: {fileID: 489461618}
  - component: {fileID: 489461617}
  - component: {fileID: 489461616}
  m_Layer: 31
  m_Name: PlasticSphereDynamicExterior
  m_TagString: Untagged
  m_Icon: {fileID: 0}
  m_NavMeshLayer: 0
  m_StaticEditorFlags: 0
  m_IsActive: 1
--- !u!135 &489461616
SphereCollider:
  m_ObjectHideFlags: 0
  m_CorrespondingSourceObject: {fileID: 0}
  m_PrefabInternal: {fileID: 0}
  m_GameObject: {fileID: 489461615}
  m_Material: {fileID: 0}
  m_IsTrigger: 0
  m_Enabled: 1
  serializedVersion: 2
  m_Radius: 0.5
  m_Center: {x: 0, y: 0, z: 0}
--- !u!23 &489461617
MeshRenderer:
  m_ObjectHideFlags: 0
  m_CorrespondingSourceObject: {fileID: 0}
  m_PrefabInternal: {fileID: 0}
  m_GameObject: {fileID: 489461615}
  m_Enabled: 1
  m_CastShadows: 1
  m_ReceiveShadows: 1
  m_DynamicOccludee: 1
  m_MotionVectors: 1
  m_LightProbeUsage: 0
  m_ReflectionProbeUsage: 1
  m_RenderingLayerMask: 4294967295
  m_Materials:
  - {fileID: 2100000, guid: 958abb01761e1dc4ebf9ffdf8252d20e, type: 2}
  m_StaticBatchInfo:
    firstSubMesh: 0
    subMeshCount: 0
  m_StaticBatchRoot: {fileID: 0}
  m_ProbeAnchor: {fileID: 0}
  m_LightProbeVolumeOverride: {fileID: 0}
  m_ScaleInLightmap: 1
  m_PreserveUVs: 0
  m_IgnoreNormalsForChartDetection: 0
  m_ImportantGI: 0
  m_StitchLightmapSeams: 0
  m_SelectedEditorRenderState: 3
  m_MinimumChartSize: 4
  m_AutoUVMaxDistance: 0.5
  m_AutoUVMaxAngle: 89
  m_LightmapParameters: {fileID: 0}
  m_SortingLayerID: 0
  m_SortingLayer: 0
  m_SortingOrder: 0
--- !u!33 &489461618
MeshFilter:
  m_ObjectHideFlags: 0
  m_CorrespondingSourceObject: {fileID: 0}
  m_PrefabInternal: {fileID: 0}
  m_GameObject: {fileID: 489461615}
  m_Mesh: {fileID: 10207, guid: 0000000000000000e000000000000000, type: 0}
--- !u!4 &489461619
Transform:
  m_ObjectHideFlags: 0
  m_CorrespondingSourceObject: {fileID: 0}
  m_PrefabInternal: {fileID: 0}
  m_GameObject: {fileID: 489461615}
  m_LocalRotation: {x: 0, y: 0, z: 0, w: 1}
  m_LocalPosition: {x: -21.66, y: -0.36, z: -1}
  m_LocalScale: {x: 1, y: 1, z: 1}
  m_Children: []
  m_Father: {fileID: 0}
  m_RootOrder: 20
  m_LocalEulerAnglesHint: {x: 0, y: 0, z: 0}
--- !u!1 &522455684
GameObject:
  m_ObjectHideFlags: 0
  m_CorrespondingSourceObject: {fileID: 0}
  m_PrefabInternal: {fileID: 0}
  serializedVersion: 6
  m_Component:
  - component: {fileID: 522455685}
  - component: {fileID: 522455686}
  - component: {fileID: 522455687}
  m_Layer: 0
  m_Name: Flashlight
  m_TagString: Untagged
  m_Icon: {fileID: 0}
  m_NavMeshLayer: 0
  m_StaticEditorFlags: 0
  m_IsActive: 1
--- !u!4 &522455685
Transform:
  m_ObjectHideFlags: 0
  m_CorrespondingSourceObject: {fileID: 0}
  m_PrefabInternal: {fileID: 0}
  m_GameObject: {fileID: 522455684}
  m_LocalRotation: {x: 0, y: -0.026176924, z: 0, w: 0.99965733}
  m_LocalPosition: {x: 0.2, y: -0.5, z: 0}
  m_LocalScale: {x: 1, y: 1, z: 1}
  m_Children: []
  m_Father: {fileID: 827759597}
  m_RootOrder: 0
  m_LocalEulerAnglesHint: {x: 0, y: -3, z: 0}
--- !u!108 &522455686
Light:
  m_ObjectHideFlags: 0
  m_CorrespondingSourceObject: {fileID: 0}
  m_PrefabInternal: {fileID: 0}
  m_GameObject: {fileID: 522455684}
  m_Enabled: 0
  serializedVersion: 8
  m_Type: 0
  m_Color: {r: 1, g: 1, b: 1, a: 1}
  m_Intensity: 1
  m_Range: 10
  m_SpotAngle: 50
  m_CookieSize: 10
  m_Shadows:
    m_Type: 0
    m_Resolution: -1
    m_CustomResolution: -1
    m_Strength: 1
    m_Bias: 0.05
    m_NormalBias: 0.4
    m_NearPlane: 0.2
  m_Cookie: {fileID: 2800000, guid: 641bb2dce818a8a499b537a1963889ac, type: 3}
  m_DrawHalo: 0
  m_Flare: {fileID: 0}
  m_RenderMode: 0
  m_CullingMask:
    serializedVersion: 2
    m_Bits: 4294967295
  m_Lightmapping: 4
  m_LightShadowCasterMode: 0
  m_AreaSize: {x: 1, y: 1}
  m_BounceIntensity: 1
  m_ColorTemperature: 6570
  m_UseColorTemperature: 0
  m_ShadowRadius: 0
  m_ShadowAngle: 0
--- !u!114 &522455687
MonoBehaviour:
  m_ObjectHideFlags: 0
  m_CorrespondingSourceObject: {fileID: 0}
  m_PrefabInternal: {fileID: 0}
  m_GameObject: {fileID: 522455684}
  m_Enabled: 1
  m_EditorHideFlags: 0
  m_Script: {fileID: 11500000, guid: c683cbf707c864143b31deb66a80023e, type: 3}
  m_Name: 
  m_EditorClassIdentifier: 
  toggleKey: f
--- !u!1001 &664667444
Prefab:
  m_ObjectHideFlags: 0
  serializedVersion: 2
  m_Modification:
    m_TransformParent: {fileID: 0}
    m_Modifications:
    - target: {fileID: 4761001537956562, guid: 5acc67646643849938674d9d813be2bc, type: 2}
      propertyPath: m_LocalPosition.x
      value: -9
      objectReference: {fileID: 0}
    - target: {fileID: 4761001537956562, guid: 5acc67646643849938674d9d813be2bc, type: 2}
      propertyPath: m_LocalPosition.y
      value: 2
      objectReference: {fileID: 0}
    - target: {fileID: 4761001537956562, guid: 5acc67646643849938674d9d813be2bc, type: 2}
      propertyPath: m_LocalPosition.z
      value: 1.5
      objectReference: {fileID: 0}
    - target: {fileID: 4761001537956562, guid: 5acc67646643849938674d9d813be2bc, type: 2}
      propertyPath: m_LocalRotation.x
      value: -0.02745057
      objectReference: {fileID: 0}
    - target: {fileID: 4761001537956562, guid: 5acc67646643849938674d9d813be2bc, type: 2}
      propertyPath: m_LocalRotation.y
      value: -0.77640647
      objectReference: {fileID: 0}
    - target: {fileID: 4761001537956562, guid: 5acc67646643849938674d9d813be2bc, type: 2}
      propertyPath: m_LocalRotation.z
      value: 0.03389865
      objectReference: {fileID: 0}
    - target: {fileID: 4761001537956562, guid: 5acc67646643849938674d9d813be2bc, type: 2}
      propertyPath: m_LocalRotation.w
      value: -0.62872124
      objectReference: {fileID: 0}
    - target: {fileID: 4761001537956562, guid: 5acc67646643849938674d9d813be2bc, type: 2}
      propertyPath: m_RootOrder
      value: 1
      objectReference: {fileID: 0}
    - target: {fileID: 20331323035144044, guid: 5acc67646643849938674d9d813be2bc,
        type: 2}
      propertyPath: m_ClearFlags
      value: 2
      objectReference: {fileID: 0}
    - target: {fileID: 20331323035144044, guid: 5acc67646643849938674d9d813be2bc,
        type: 2}
      propertyPath: m_BackGroundColor.r
      value: 0
      objectReference: {fileID: 0}
    - target: {fileID: 20331323035144044, guid: 5acc67646643849938674d9d813be2bc,
        type: 2}
      propertyPath: m_BackGroundColor.g
      value: 0
      objectReference: {fileID: 0}
    - target: {fileID: 20331323035144044, guid: 5acc67646643849938674d9d813be2bc,
        type: 2}
      propertyPath: m_BackGroundColor.b
      value: 0
      objectReference: {fileID: 0}
    - target: {fileID: 20331323035144044, guid: 5acc67646643849938674d9d813be2bc,
        type: 2}
      propertyPath: m_ForceIntoRT
      value: 1
      objectReference: {fileID: 0}
    - target: {fileID: 1273562311564970, guid: 5acc67646643849938674d9d813be2bc, type: 2}
      propertyPath: m_IsActive
      value: 0
      objectReference: {fileID: 0}
    m_RemovedComponents: []
  m_SourcePrefab: {fileID: 100100000, guid: 5acc67646643849938674d9d813be2bc, type: 2}
  m_IsPrefabAsset: 0
--- !u!1 &664667445 stripped
GameObject:
  m_CorrespondingSourceObject: {fileID: 1273562311564970, guid: 5acc67646643849938674d9d813be2bc,
    type: 2}
  m_PrefabInternal: {fileID: 664667444}
--- !u!4 &664667446 stripped
Transform:
  m_CorrespondingSourceObject: {fileID: 4761001537956562, guid: 5acc67646643849938674d9d813be2bc,
    type: 2}
  m_PrefabInternal: {fileID: 664667444}
--- !u!114 &664667447
MonoBehaviour:
  m_ObjectHideFlags: 0
  m_CorrespondingSourceObject: {fileID: 0}
  m_PrefabInternal: {fileID: 0}
  m_GameObject: {fileID: 664667445}
  m_Enabled: 1
  m_EditorHideFlags: 0
  m_Script: {fileID: 11500000, guid: 948f4100a11a5c24981795d21301da5c, type: 3}
  m_Name: 
  m_EditorClassIdentifier: 
  volumeTrigger: {fileID: 664667446}
  volumeLayer:
    serializedVersion: 2
    m_Bits: 256
  stopNaNPropagation: 1
  antialiasingMode: 0
  temporalAntialiasing:
    jitterSpread: 0.75
    sharpness: 0.25
    stationaryBlending: 0.95
    motionBlending: 0.85
  subpixelMorphologicalAntialiasing:
    quality: 2
  fastApproximateAntialiasing:
    fastMode: 0
    keepAlpha: 0
  fog:
    enabled: 1
    excludeSkybox: 1
  debugLayer:
    lightMeter:
      width: 512
      height: 256
      showCurves: 1
    histogram:
      width: 512
      height: 256
      channel: 3
    waveform:
      exposure: 0.12
      height: 256
    vectorscope:
      size: 256
      exposure: 0.12
    overlaySettings:
      linearDepth: 0
      motionColorIntensity: 4
      motionGridSize: 64
      colorBlindnessType: 0
      colorBlindnessStrength: 1
  m_Resources: {fileID: 11400000, guid: d82512f9c8e5d4a4d938b575d47f88d4, type: 2}
  m_ShowToolkit: 0
  m_ShowCustomSorter: 0
  breakBeforeColorGrading: 0
  m_BeforeTransparentBundles: []
  m_BeforeStackBundles: []
  m_AfterStackBundles: []
--- !u!1 &678535969
GameObject:
  m_ObjectHideFlags: 0
  m_CorrespondingSourceObject: {fileID: 0}
  m_PrefabInternal: {fileID: 0}
  serializedVersion: 6
  m_Component:
  - component: {fileID: 678535970}
  m_Layer: 0
  m_Name: '--- disabled ----------------------------'
  m_TagString: Untagged
  m_Icon: {fileID: 0}
  m_NavMeshLayer: 0
  m_StaticEditorFlags: 0
  m_IsActive: 1
--- !u!4 &678535970
Transform:
  m_ObjectHideFlags: 0
  m_CorrespondingSourceObject: {fileID: 0}
  m_PrefabInternal: {fileID: 0}
  m_GameObject: {fileID: 678535969}
  m_LocalRotation: {x: 0, y: 0, z: 0, w: 1}
  m_LocalPosition: {x: 0, y: 0, z: 0}
  m_LocalScale: {x: 1, y: 1, z: 1}
  m_Children: []
  m_Father: {fileID: 0}
  m_RootOrder: 21
  m_LocalEulerAnglesHint: {x: 0, y: 0, z: 0}
--- !u!1001 &682608204
Prefab:
  m_ObjectHideFlags: 0
  serializedVersion: 2
  m_Modification:
    m_TransformParent: {fileID: 0}
    m_Modifications:
    - target: {fileID: 4242342986245786, guid: 86eb91c944b87df489809be56332a79a, type: 2}
      propertyPath: m_LocalPosition.x
      value: -1.5
      objectReference: {fileID: 0}
    - target: {fileID: 4242342986245786, guid: 86eb91c944b87df489809be56332a79a, type: 2}
      propertyPath: m_LocalPosition.y
      value: 0
      objectReference: {fileID: 0}
    - target: {fileID: 4242342986245786, guid: 86eb91c944b87df489809be56332a79a, type: 2}
      propertyPath: m_LocalPosition.z
      value: -1.5
      objectReference: {fileID: 0}
    - target: {fileID: 4242342986245786, guid: 86eb91c944b87df489809be56332a79a, type: 2}
      propertyPath: m_LocalRotation.x
      value: 0
      objectReference: {fileID: 0}
    - target: {fileID: 4242342986245786, guid: 86eb91c944b87df489809be56332a79a, type: 2}
      propertyPath: m_LocalRotation.y
      value: 0.5
      objectReference: {fileID: 0}
    - target: {fileID: 4242342986245786, guid: 86eb91c944b87df489809be56332a79a, type: 2}
      propertyPath: m_LocalRotation.z
      value: 0
      objectReference: {fileID: 0}
    - target: {fileID: 4242342986245786, guid: 86eb91c944b87df489809be56332a79a, type: 2}
      propertyPath: m_LocalRotation.w
      value: 0.8660254
      objectReference: {fileID: 0}
    - target: {fileID: 4242342986245786, guid: 86eb91c944b87df489809be56332a79a, type: 2}
      propertyPath: m_RootOrder
      value: 24
      objectReference: {fileID: 0}
    - target: {fileID: 1143005562965730, guid: 86eb91c944b87df489809be56332a79a, type: 2}
      propertyPath: m_IsActive
      value: 1
      objectReference: {fileID: 0}
    - target: {fileID: 1143005562965730, guid: 86eb91c944b87df489809be56332a79a, type: 2}
      propertyPath: m_Layer
      value: 29
      objectReference: {fileID: 0}
    - target: {fileID: 1234819742927188, guid: 86eb91c944b87df489809be56332a79a, type: 2}
      propertyPath: m_Layer
      value: 29
      objectReference: {fileID: 0}
    - target: {fileID: 1319503972644468, guid: 86eb91c944b87df489809be56332a79a, type: 2}
      propertyPath: m_Layer
      value: 29
      objectReference: {fileID: 0}
    - target: {fileID: 1354301764453666, guid: 86eb91c944b87df489809be56332a79a, type: 2}
      propertyPath: m_Layer
      value: 29
      objectReference: {fileID: 0}
    - target: {fileID: 1990195203196160, guid: 86eb91c944b87df489809be56332a79a, type: 2}
      propertyPath: m_Layer
      value: 29
      objectReference: {fileID: 0}
    - target: {fileID: 1645395529326398, guid: 86eb91c944b87df489809be56332a79a, type: 2}
      propertyPath: m_Layer
      value: 29
      objectReference: {fileID: 0}
    - target: {fileID: 1894080193980154, guid: 86eb91c944b87df489809be56332a79a, type: 2}
      propertyPath: m_Layer
      value: 29
      objectReference: {fileID: 0}
    - target: {fileID: 1677470637742422, guid: 86eb91c944b87df489809be56332a79a, type: 2}
      propertyPath: m_Layer
      value: 29
      objectReference: {fileID: 0}
    - target: {fileID: 1508869967383502, guid: 86eb91c944b87df489809be56332a79a, type: 2}
      propertyPath: m_Layer
      value: 29
      objectReference: {fileID: 0}
    - target: {fileID: 1301970741943684, guid: 86eb91c944b87df489809be56332a79a, type: 2}
      propertyPath: m_Layer
      value: 29
      objectReference: {fileID: 0}
    - target: {fileID: 1871740636282224, guid: 86eb91c944b87df489809be56332a79a, type: 2}
      propertyPath: m_Layer
      value: 29
      objectReference: {fileID: 0}
    - target: {fileID: 1183740109754898, guid: 86eb91c944b87df489809be56332a79a, type: 2}
      propertyPath: m_Layer
      value: 29
      objectReference: {fileID: 0}
    - target: {fileID: 1004286210192526, guid: 86eb91c944b87df489809be56332a79a, type: 2}
      propertyPath: m_Layer
      value: 29
      objectReference: {fileID: 0}
    - target: {fileID: 1449318940145302, guid: 86eb91c944b87df489809be56332a79a, type: 2}
      propertyPath: m_Layer
      value: 29
      objectReference: {fileID: 0}
    - target: {fileID: 1179928716466682, guid: 86eb91c944b87df489809be56332a79a, type: 2}
      propertyPath: m_Layer
      value: 29
      objectReference: {fileID: 0}
    - target: {fileID: 1620632405876638, guid: 86eb91c944b87df489809be56332a79a, type: 2}
      propertyPath: m_Layer
      value: 29
      objectReference: {fileID: 0}
    - target: {fileID: 1603004680409468, guid: 86eb91c944b87df489809be56332a79a, type: 2}
      propertyPath: m_Layer
      value: 29
      objectReference: {fileID: 0}
    - target: {fileID: 1253799383086484, guid: 86eb91c944b87df489809be56332a79a, type: 2}
      propertyPath: m_Layer
      value: 29
      objectReference: {fileID: 0}
    - target: {fileID: 1639726972923992, guid: 86eb91c944b87df489809be56332a79a, type: 2}
      propertyPath: m_Layer
      value: 29
      objectReference: {fileID: 0}
    m_RemovedComponents: []
  m_SourcePrefab: {fileID: 100100000, guid: 86eb91c944b87df489809be56332a79a, type: 2}
  m_IsPrefabAsset: 0
--- !u!1001 &753730861
Prefab:
  m_ObjectHideFlags: 0
  serializedVersion: 2
  m_Modification:
    m_TransformParent: {fileID: 0}
    m_Modifications:
    - target: {fileID: 4728405665599508, guid: 86f811c238cf63b48bc0e8675f4dafa1, type: 2}
      propertyPath: m_LocalPosition.x
      value: 0
      objectReference: {fileID: 0}
    - target: {fileID: 4728405665599508, guid: 86f811c238cf63b48bc0e8675f4dafa1, type: 2}
      propertyPath: m_LocalPosition.y
      value: 0
      objectReference: {fileID: 0}
    - target: {fileID: 4728405665599508, guid: 86f811c238cf63b48bc0e8675f4dafa1, type: 2}
      propertyPath: m_LocalPosition.z
      value: 0
      objectReference: {fileID: 0}
    - target: {fileID: 4728405665599508, guid: 86f811c238cf63b48bc0e8675f4dafa1, type: 2}
      propertyPath: m_LocalRotation.x
      value: 0
      objectReference: {fileID: 0}
    - target: {fileID: 4728405665599508, guid: 86f811c238cf63b48bc0e8675f4dafa1, type: 2}
      propertyPath: m_LocalRotation.y
      value: 0
      objectReference: {fileID: 0}
    - target: {fileID: 4728405665599508, guid: 86f811c238cf63b48bc0e8675f4dafa1, type: 2}
      propertyPath: m_LocalRotation.z
      value: 0
      objectReference: {fileID: 0}
    - target: {fileID: 4728405665599508, guid: 86f811c238cf63b48bc0e8675f4dafa1, type: 2}
      propertyPath: m_LocalRotation.w
      value: 1
      objectReference: {fileID: 0}
    - target: {fileID: 4728405665599508, guid: 86f811c238cf63b48bc0e8675f4dafa1, type: 2}
      propertyPath: m_RootOrder
      value: 23
      objectReference: {fileID: 0}
    - target: {fileID: 1649269110669842, guid: 86f811c238cf63b48bc0e8675f4dafa1, type: 2}
      propertyPath: m_IsActive
      value: 1
      objectReference: {fileID: 0}
    m_RemovedComponents: []
  m_SourcePrefab: {fileID: 100100000, guid: 86f811c238cf63b48bc0e8675f4dafa1, type: 2}
  m_IsPrefabAsset: 0
--- !u!1 &763693378
GameObject:
  m_ObjectHideFlags: 0
  m_CorrespondingSourceObject: {fileID: 0}
  m_PrefabInternal: {fileID: 0}
  serializedVersion: 6
  m_Component:
  - component: {fileID: 763693380}
  - component: {fileID: 763693379}
  m_Layer: 0
  m_Name: Light Probe Group (1)
  m_TagString: Untagged
  m_Icon: {fileID: 0}
  m_NavMeshLayer: 0
  m_StaticEditorFlags: 0
  m_IsActive: 1
--- !u!220 &763693379
LightProbeGroup:
  m_ObjectHideFlags: 0
  m_CorrespondingSourceObject: {fileID: 0}
  m_PrefabInternal: {fileID: 0}
  m_GameObject: {fileID: 763693378}
  m_Enabled: 1
  m_SourcePositions:
  - {x: 1, y: 1, z: 1}
  - {x: 1, y: 1, z: -1}
  - {x: 1, y: -1, z: 1}
  - {x: 1, y: -1, z: -1}
  - {x: -3.1514473, y: 1, z: 1}
  - {x: -12.309853, y: 2.6064167, z: -4.376486}
  - {x: 4.300207, y: 7.001985, z: -41.121513}
  - {x: -1, y: -1, z: -1}
  - {x: -6.8616962, y: -0.82435036, z: 1}
  - {x: -22.984827, y: 6.425055, z: -14.039143}
  - {x: -4.1532383, y: 1, z: -4.376486}
  - {x: -4.1532383, y: 6.9261556, z: -18.967762}
  - {x: -15.921373, y: 2.5936089, z: -14.510956}
  - {x: -4.1532383, y: 1, z: -14.510956}
  - {x: -4.1532383, y: 1, z: -18.967762}
  - {x: -11.3814335, y: -0.12568092, z: 1}
  - {x: -11.3814335, y: 5.997263, z: 1}
  - {x: -25.163889, y: 5.997263, z: 10.425291}
  - {x: -35.678673, y: 12.5645685, z: -3.4573402}
  - {x: -35.678673, y: 12.5645685, z: -41.121513}
  - {x: -11.72146, y: 12.5645685, z: -41.121513}
--- !u!4 &763693380
Transform:
  m_ObjectHideFlags: 0
  m_CorrespondingSourceObject: {fileID: 0}
  m_PrefabInternal: {fileID: 0}
  m_GameObject: {fileID: 763693378}
  m_LocalRotation: {x: 0, y: 0, z: 0, w: 1}
  m_LocalPosition: {x: -17.19, y: 0.47, z: -0.6666622}
  m_LocalScale: {x: 1, y: 1, z: 1}
  m_Children: []
  m_Father: {fileID: 0}
  m_RootOrder: 19
  m_LocalEulerAnglesHint: {x: 0, y: 0, z: 0}
--- !u!1 &827759596 stripped
GameObject:
  m_CorrespondingSourceObject: {fileID: 100002, guid: 5e9e851c0e142814dac026a256ba2ac0,
    type: 2}
  m_PrefabInternal: {fileID: 456390964}
--- !u!4 &827759597 stripped
Transform:
  m_CorrespondingSourceObject: {fileID: 400002, guid: 5e9e851c0e142814dac026a256ba2ac0,
    type: 2}
  m_PrefabInternal: {fileID: 456390964}
--- !u!114 &827759601
MonoBehaviour:
  m_ObjectHideFlags: 0
  m_CorrespondingSourceObject: {fileID: 0}
  m_PrefabInternal: {fileID: 0}
  m_GameObject: {fileID: 827759596}
  m_Enabled: 1
  m_EditorHideFlags: 0
  m_Script: {fileID: 11500000, guid: 948f4100a11a5c24981795d21301da5c, type: 3}
  m_Name: 
  m_EditorClassIdentifier: 
  volumeTrigger: {fileID: 664667446}
  volumeLayer:
    serializedVersion: 2
    m_Bits: 256
  stopNaNPropagation: 1
  antialiasingMode: 3
  temporalAntialiasing:
    jitterSpread: 0.75
    sharpness: 0.25
    stationaryBlending: 0.95
    motionBlending: 0.85
  subpixelMorphologicalAntialiasing:
    quality: 2
  fastApproximateAntialiasing:
    fastMode: 0
    keepAlpha: 0
  fog:
    enabled: 1
    excludeSkybox: 1
  debugLayer:
    lightMeter:
      width: 512
      height: 256
      showCurves: 1
    histogram:
      width: 512
      height: 256
      channel: 3
    waveform:
      exposure: 0.12
      height: 256
    vectorscope:
      size: 256
      exposure: 0.12
    overlaySettings:
      linearDepth: 0
      motionColorIntensity: 4
      motionGridSize: 64
      colorBlindnessType: 0
      colorBlindnessStrength: 1
  m_Resources: {fileID: 11400000, guid: d82512f9c8e5d4a4d938b575d47f88d4, type: 2}
  m_ShowToolkit: 0
  m_ShowCustomSorter: 0
  breakBeforeColorGrading: 0
  m_BeforeTransparentBundles: []
  m_BeforeStackBundles: []
  m_AfterStackBundles: []
--- !u!1001 &1037684050
Prefab:
  m_ObjectHideFlags: 0
  serializedVersion: 2
  m_Modification:
    m_TransformParent: {fileID: 0}
    m_Modifications:
    - target: {fileID: 4502602799362764, guid: 3f411b0f7c096164096a9a03c1be6732, type: 2}
      propertyPath: m_LocalPosition.x
      value: 0
      objectReference: {fileID: 0}
    - target: {fileID: 4502602799362764, guid: 3f411b0f7c096164096a9a03c1be6732, type: 2}
      propertyPath: m_LocalPosition.y
      value: 0
      objectReference: {fileID: 0}
    - target: {fileID: 4502602799362764, guid: 3f411b0f7c096164096a9a03c1be6732, type: 2}
      propertyPath: m_LocalPosition.z
      value: 0
      objectReference: {fileID: 0}
    - target: {fileID: 4502602799362764, guid: 3f411b0f7c096164096a9a03c1be6732, type: 2}
      propertyPath: m_LocalRotation.x
      value: 0
      objectReference: {fileID: 0}
    - target: {fileID: 4502602799362764, guid: 3f411b0f7c096164096a9a03c1be6732, type: 2}
      propertyPath: m_LocalRotation.y
      value: 0
      objectReference: {fileID: 0}
    - target: {fileID: 4502602799362764, guid: 3f411b0f7c096164096a9a03c1be6732, type: 2}
      propertyPath: m_LocalRotation.z
      value: 0
      objectReference: {fileID: 0}
    - target: {fileID: 4502602799362764, guid: 3f411b0f7c096164096a9a03c1be6732, type: 2}
      propertyPath: m_LocalRotation.w
      value: 1
      objectReference: {fileID: 0}
    - target: {fileID: 4502602799362764, guid: 3f411b0f7c096164096a9a03c1be6732, type: 2}
      propertyPath: m_RootOrder
      value: 14
      objectReference: {fileID: 0}
    - target: {fileID: 108163281684182622, guid: 3f411b0f7c096164096a9a03c1be6732,
        type: 2}
      propertyPath: m_CullingMask.m_Bits
      value: 1342177280
      objectReference: {fileID: 0}
    - target: {fileID: 108163281684182622, guid: 3f411b0f7c096164096a9a03c1be6732,
        type: 2}
      propertyPath: m_Lightmapping
      value: 1
      objectReference: {fileID: 0}
    - target: {fileID: 108163281684182622, guid: 3f411b0f7c096164096a9a03c1be6732,
        type: 2}
      propertyPath: m_Shadows.m_Type
      value: 2
      objectReference: {fileID: 0}
    - target: {fileID: 108163281684182622, guid: 3f411b0f7c096164096a9a03c1be6732,
        type: 2}
      propertyPath: m_ShadowRadius
      value: 5
      objectReference: {fileID: 0}
    - target: {fileID: 4842085134100662, guid: 3f411b0f7c096164096a9a03c1be6732, type: 2}
      propertyPath: m_LocalPosition.y
      value: 10
      objectReference: {fileID: 0}
    - target: {fileID: 4842085134100662, guid: 3f411b0f7c096164096a9a03c1be6732, type: 2}
      propertyPath: m_LocalPosition.x
      value: -0
      objectReference: {fileID: 0}
    - target: {fileID: 4842085134100662, guid: 3f411b0f7c096164096a9a03c1be6732, type: 2}
      propertyPath: m_LocalPosition.z
      value: -0.2
      objectReference: {fileID: 0}
    - target: {fileID: 4842085134100662, guid: 3f411b0f7c096164096a9a03c1be6732, type: 2}
      propertyPath: m_LocalRotation.x
      value: 0.77162457
      objectReference: {fileID: 0}
    - target: {fileID: 4842085134100662, guid: 3f411b0f7c096164096a9a03c1be6732, type: 2}
      propertyPath: m_LocalRotation.w
      value: 0.63607824
      objectReference: {fileID: 0}
    - target: {fileID: 4842085134100662, guid: 3f411b0f7c096164096a9a03c1be6732, type: 2}
      propertyPath: m_LocalEulerAnglesHint.x
      value: 101
      objectReference: {fileID: 0}
    - target: {fileID: 108163281684182622, guid: 3f411b0f7c096164096a9a03c1be6732,
        type: 2}
      propertyPath: m_Shadows.m_Resolution
      value: 2
      objectReference: {fileID: 0}
    - target: {fileID: 108163281684182622, guid: 3f411b0f7c096164096a9a03c1be6732,
        type: 2}
      propertyPath: m_Shadows.m_Strength
      value: 1
      objectReference: {fileID: 0}
    - target: {fileID: 108163281684182622, guid: 3f411b0f7c096164096a9a03c1be6732,
        type: 2}
      propertyPath: m_Shadows.m_Bias
      value: 0.022
      objectReference: {fileID: 0}
    - target: {fileID: 108163281684182622, guid: 3f411b0f7c096164096a9a03c1be6732,
        type: 2}
      propertyPath: m_Shadows.m_NormalBias
      value: 0.92
      objectReference: {fileID: 0}
    m_RemovedComponents: []
  m_SourcePrefab: {fileID: 100100000, guid: 3f411b0f7c096164096a9a03c1be6732, type: 2}
  m_IsPrefabAsset: 0
--- !u!1 &1077893744
GameObject:
  m_ObjectHideFlags: 0
  m_CorrespondingSourceObject: {fileID: 0}
  m_PrefabInternal: {fileID: 0}
  serializedVersion: 6
  m_Component:
  - component: {fileID: 1077893746}
  - component: {fileID: 1077893745}
  m_Layer: 0
  m_Name: Directional Light (sun)
  m_TagString: Untagged
  m_Icon: {fileID: 0}
  m_NavMeshLayer: 0
  m_StaticEditorFlags: 0
  m_IsActive: 1
--- !u!108 &1077893745
Light:
  m_ObjectHideFlags: 0
  m_CorrespondingSourceObject: {fileID: 0}
  m_PrefabInternal: {fileID: 0}
  m_GameObject: {fileID: 1077893744}
  m_Enabled: 1
  serializedVersion: 8
  m_Type: 1
  m_Color: {r: 1, g: 0.95686275, b: 0.8392157, a: 1}
  m_Intensity: 1
  m_Range: 10
  m_SpotAngle: 30
  m_CookieSize: 10
  m_Shadows:
    m_Type: 2
    m_Resolution: -1
    m_CustomResolution: -1
    m_Strength: 1
    m_Bias: 0.05
    m_NormalBias: 0.4
    m_NearPlane: 0.2
  m_Cookie: {fileID: 0}
  m_DrawHalo: 0
  m_Flare: {fileID: 0}
  m_RenderMode: 0
  m_CullingMask:
    serializedVersion: 2
    m_Bits: 3489660928
  m_Lightmapping: 1
  m_LightShadowCasterMode: 0
  m_AreaSize: {x: 1, y: 1}
  m_BounceIntensity: 1
  m_ColorTemperature: 6570
  m_UseColorTemperature: 0
  m_ShadowRadius: 0
  m_ShadowAngle: 0
--- !u!4 &1077893746
Transform:
  m_ObjectHideFlags: 0
  m_CorrespondingSourceObject: {fileID: 0}
  m_PrefabInternal: {fileID: 0}
  m_GameObject: {fileID: 1077893744}
  m_LocalRotation: {x: 0.23456976, y: 0.40821788, z: -0.10938167, w: 0.8754261}
  m_LocalPosition: {x: -18.35, y: 10.08, z: 0}
  m_LocalScale: {x: 1, y: 1, z: 1}
  m_Children: []
  m_Father: {fileID: 0}
  m_RootOrder: 6
  m_LocalEulerAnglesHint: {x: 30.000002, y: 50, z: 0}
--- !u!1001 &1086624441
Prefab:
  m_ObjectHideFlags: 0
  serializedVersion: 2
  m_Modification:
    m_TransformParent: {fileID: 0}
    m_Modifications:
    - target: {fileID: 4272133756439694, guid: ac3b11ead5c5a4f709a2b78ff480716e, type: 2}
      propertyPath: m_LocalPosition.x
      value: 0
      objectReference: {fileID: 0}
    - target: {fileID: 4272133756439694, guid: ac3b11ead5c5a4f709a2b78ff480716e, type: 2}
      propertyPath: m_LocalPosition.y
      value: 0
      objectReference: {fileID: 0}
    - target: {fileID: 4272133756439694, guid: ac3b11ead5c5a4f709a2b78ff480716e, type: 2}
      propertyPath: m_LocalPosition.z
      value: 0
      objectReference: {fileID: 0}
    - target: {fileID: 4272133756439694, guid: ac3b11ead5c5a4f709a2b78ff480716e, type: 2}
      propertyPath: m_LocalRotation.x
      value: 0
      objectReference: {fileID: 0}
    - target: {fileID: 4272133756439694, guid: ac3b11ead5c5a4f709a2b78ff480716e, type: 2}
      propertyPath: m_LocalRotation.y
      value: 0
      objectReference: {fileID: 0}
    - target: {fileID: 4272133756439694, guid: ac3b11ead5c5a4f709a2b78ff480716e, type: 2}
      propertyPath: m_LocalRotation.z
      value: 0
      objectReference: {fileID: 0}
    - target: {fileID: 4272133756439694, guid: ac3b11ead5c5a4f709a2b78ff480716e, type: 2}
      propertyPath: m_LocalRotation.w
      value: 1
      objectReference: {fileID: 0}
    - target: {fileID: 4272133756439694, guid: ac3b11ead5c5a4f709a2b78ff480716e, type: 2}
      propertyPath: m_RootOrder
      value: 22
      objectReference: {fileID: 0}
    - target: {fileID: 1182585569876038, guid: ac3b11ead5c5a4f709a2b78ff480716e, type: 2}
      propertyPath: m_IsActive
      value: 1
      objectReference: {fileID: 0}
    - target: {fileID: 23997014721716208, guid: ac3b11ead5c5a4f709a2b78ff480716e,
        type: 2}
      propertyPath: m_ScaleInLightmap
      value: 2
      objectReference: {fileID: 0}
    - target: {fileID: 23734937056687032, guid: ac3b11ead5c5a4f709a2b78ff480716e,
        type: 2}
      propertyPath: m_CastShadows
      value: 1
      objectReference: {fileID: 0}
    - target: {fileID: 23494422747162926, guid: ac3b11ead5c5a4f709a2b78ff480716e,
        type: 2}
      propertyPath: m_CastShadows
      value: 1
      objectReference: {fileID: 0}
    - target: {fileID: 23997014721716208, guid: ac3b11ead5c5a4f709a2b78ff480716e,
        type: 2}
      propertyPath: m_CastShadows
      value: 1
      objectReference: {fileID: 0}
    - target: {fileID: 23666152977782112, guid: ac3b11ead5c5a4f709a2b78ff480716e,
        type: 2}
      propertyPath: m_CastShadows
      value: 1
      objectReference: {fileID: 0}
    - target: {fileID: 23158142084418680, guid: ac3b11ead5c5a4f709a2b78ff480716e,
        type: 2}
      propertyPath: m_CastShadows
      value: 1
      objectReference: {fileID: 0}
    - target: {fileID: 23630055543280240, guid: ac3b11ead5c5a4f709a2b78ff480716e,
        type: 2}
      propertyPath: m_CastShadows
      value: 1
      objectReference: {fileID: 0}
    - target: {fileID: 1182585569876038, guid: ac3b11ead5c5a4f709a2b78ff480716e, type: 2}
      propertyPath: m_Layer
      value: 29
      objectReference: {fileID: 0}
    - target: {fileID: 1538643852770066, guid: ac3b11ead5c5a4f709a2b78ff480716e, type: 2}
      propertyPath: m_Layer
      value: 29
      objectReference: {fileID: 0}
    - target: {fileID: 1380213591587012, guid: ac3b11ead5c5a4f709a2b78ff480716e, type: 2}
      propertyPath: m_Layer
      value: 29
      objectReference: {fileID: 0}
    - target: {fileID: 1171860350829608, guid: ac3b11ead5c5a4f709a2b78ff480716e, type: 2}
      propertyPath: m_Layer
      value: 29
      objectReference: {fileID: 0}
    - target: {fileID: 1939634435965212, guid: ac3b11ead5c5a4f709a2b78ff480716e, type: 2}
      propertyPath: m_Layer
      value: 29
      objectReference: {fileID: 0}
    - target: {fileID: 1357343397258348, guid: ac3b11ead5c5a4f709a2b78ff480716e, type: 2}
      propertyPath: m_Layer
      value: 29
      objectReference: {fileID: 0}
    - target: {fileID: 1693444073930208, guid: ac3b11ead5c5a4f709a2b78ff480716e, type: 2}
      propertyPath: m_Layer
      value: 29
      objectReference: {fileID: 0}
    - target: {fileID: 1659726514302612, guid: ac3b11ead5c5a4f709a2b78ff480716e, type: 2}
      propertyPath: m_Layer
      value: 29
      objectReference: {fileID: 0}
    - target: {fileID: 1354035022990892, guid: ac3b11ead5c5a4f709a2b78ff480716e, type: 2}
      propertyPath: m_Layer
      value: 29
      objectReference: {fileID: 0}
    m_RemovedComponents: []
  m_SourcePrefab: {fileID: 100100000, guid: ac3b11ead5c5a4f709a2b78ff480716e, type: 2}
  m_IsPrefabAsset: 0
--- !u!1001 &1088724649
Prefab:
  m_ObjectHideFlags: 0
  serializedVersion: 2
  m_Modification:
    m_TransformParent: {fileID: 0}
    m_Modifications:
    - target: {fileID: 4090848141208700, guid: c11770e54c88bfb409bb6f66fac011f3, type: 2}
      propertyPath: m_LocalPosition.x
      value: 0
      objectReference: {fileID: 0}
    - target: {fileID: 4090848141208700, guid: c11770e54c88bfb409bb6f66fac011f3, type: 2}
      propertyPath: m_LocalPosition.y
      value: 0
      objectReference: {fileID: 0}
    - target: {fileID: 4090848141208700, guid: c11770e54c88bfb409bb6f66fac011f3, type: 2}
      propertyPath: m_LocalPosition.z
      value: 0
      objectReference: {fileID: 0}
    - target: {fileID: 4090848141208700, guid: c11770e54c88bfb409bb6f66fac011f3, type: 2}
      propertyPath: m_LocalRotation.x
      value: 0
      objectReference: {fileID: 0}
    - target: {fileID: 4090848141208700, guid: c11770e54c88bfb409bb6f66fac011f3, type: 2}
      propertyPath: m_LocalRotation.y
      value: 0
      objectReference: {fileID: 0}
    - target: {fileID: 4090848141208700, guid: c11770e54c88bfb409bb6f66fac011f3, type: 2}
      propertyPath: m_LocalRotation.z
      value: 0
      objectReference: {fileID: 0}
    - target: {fileID: 4090848141208700, guid: c11770e54c88bfb409bb6f66fac011f3, type: 2}
      propertyPath: m_LocalRotation.w
      value: 1
      objectReference: {fileID: 0}
    - target: {fileID: 4090848141208700, guid: c11770e54c88bfb409bb6f66fac011f3, type: 2}
      propertyPath: m_RootOrder
      value: 17
      objectReference: {fileID: 0}
    - target: {fileID: 1204731589654820, guid: c11770e54c88bfb409bb6f66fac011f3, type: 2}
      propertyPath: m_Name
      value: DesertExterior (1)
      objectReference: {fileID: 0}
    - target: {fileID: 1323331329529096, guid: c11770e54c88bfb409bb6f66fac011f3, type: 2}
      propertyPath: m_StaticEditorFlags
      value: 64
      objectReference: {fileID: 0}
    - target: {fileID: 1043807113738748, guid: c11770e54c88bfb409bb6f66fac011f3, type: 2}
      propertyPath: m_StaticEditorFlags
      value: 64
      objectReference: {fileID: 0}
    - target: {fileID: 1136960743579524, guid: c11770e54c88bfb409bb6f66fac011f3, type: 2}
      propertyPath: m_StaticEditorFlags
      value: 64
      objectReference: {fileID: 0}
    - target: {fileID: 1728765864372182, guid: c11770e54c88bfb409bb6f66fac011f3, type: 2}
      propertyPath: m_StaticEditorFlags
      value: 64
      objectReference: {fileID: 0}
    - target: {fileID: 1774588901507974, guid: c11770e54c88bfb409bb6f66fac011f3, type: 2}
      propertyPath: m_StaticEditorFlags
      value: 64
      objectReference: {fileID: 0}
    - target: {fileID: 1670894685764714, guid: c11770e54c88bfb409bb6f66fac011f3, type: 2}
      propertyPath: m_StaticEditorFlags
      value: 64
      objectReference: {fileID: 0}
    - target: {fileID: 1062950909189496, guid: c11770e54c88bfb409bb6f66fac011f3, type: 2}
      propertyPath: m_StaticEditorFlags
      value: 64
      objectReference: {fileID: 0}
    - target: {fileID: 1418000587577666, guid: c11770e54c88bfb409bb6f66fac011f3, type: 2}
      propertyPath: m_StaticEditorFlags
      value: 64
      objectReference: {fileID: 0}
    - target: {fileID: 1271230509117770, guid: c11770e54c88bfb409bb6f66fac011f3, type: 2}
      propertyPath: m_StaticEditorFlags
      value: 64
      objectReference: {fileID: 0}
    - target: {fileID: 1564084234353182, guid: c11770e54c88bfb409bb6f66fac011f3, type: 2}
      propertyPath: m_StaticEditorFlags
      value: 64
      objectReference: {fileID: 0}
    - target: {fileID: 1149932589762944, guid: c11770e54c88bfb409bb6f66fac011f3, type: 2}
      propertyPath: m_StaticEditorFlags
      value: 64
      objectReference: {fileID: 0}
    - target: {fileID: 1974770839025884, guid: c11770e54c88bfb409bb6f66fac011f3, type: 2}
      propertyPath: m_StaticEditorFlags
      value: 64
      objectReference: {fileID: 0}
    - target: {fileID: 1729246196095426, guid: c11770e54c88bfb409bb6f66fac011f3, type: 2}
      propertyPath: m_StaticEditorFlags
      value: 64
      objectReference: {fileID: 0}
    - target: {fileID: 1063978551673420, guid: c11770e54c88bfb409bb6f66fac011f3, type: 2}
      propertyPath: m_StaticEditorFlags
      value: 64
      objectReference: {fileID: 0}
    - target: {fileID: 1669787923292072, guid: c11770e54c88bfb409bb6f66fac011f3, type: 2}
      propertyPath: m_StaticEditorFlags
      value: 64
      objectReference: {fileID: 0}
    - target: {fileID: 1641955442910190, guid: c11770e54c88bfb409bb6f66fac011f3, type: 2}
      propertyPath: m_StaticEditorFlags
      value: 64
      objectReference: {fileID: 0}
    - target: {fileID: 1057966557610654, guid: c11770e54c88bfb409bb6f66fac011f3, type: 2}
      propertyPath: m_StaticEditorFlags
      value: 64
      objectReference: {fileID: 0}
    - target: {fileID: 1108825556275502, guid: c11770e54c88bfb409bb6f66fac011f3, type: 2}
      propertyPath: m_StaticEditorFlags
      value: 64
      objectReference: {fileID: 0}
    - target: {fileID: 1639547320363958, guid: c11770e54c88bfb409bb6f66fac011f3, type: 2}
      propertyPath: m_StaticEditorFlags
      value: 64
      objectReference: {fileID: 0}
    - target: {fileID: 1323239221909642, guid: c11770e54c88bfb409bb6f66fac011f3, type: 2}
      propertyPath: m_StaticEditorFlags
      value: 64
      objectReference: {fileID: 0}
    - target: {fileID: 1090164484397726, guid: c11770e54c88bfb409bb6f66fac011f3, type: 2}
      propertyPath: m_StaticEditorFlags
      value: 4294967295
      objectReference: {fileID: 0}
    - target: {fileID: 1204731589654820, guid: c11770e54c88bfb409bb6f66fac011f3, type: 2}
      propertyPath: m_StaticEditorFlags
      value: 4294967295
      objectReference: {fileID: 0}
    - target: {fileID: 23547070538197178, guid: c11770e54c88bfb409bb6f66fac011f3,
        type: 2}
      propertyPath: m_CastShadows
      value: 1
      objectReference: {fileID: 0}
    - target: {fileID: 23547070538197178, guid: c11770e54c88bfb409bb6f66fac011f3,
        type: 2}
      propertyPath: m_LightProbeUsage
      value: 1
      objectReference: {fileID: 0}
    - target: {fileID: 23962193264988764, guid: c11770e54c88bfb409bb6f66fac011f3,
        type: 2}
      propertyPath: m_LightProbeUsage
      value: 1
      objectReference: {fileID: 0}
    - target: {fileID: 23262585619364418, guid: c11770e54c88bfb409bb6f66fac011f3,
        type: 2}
      propertyPath: m_LightProbeUsage
      value: 1
      objectReference: {fileID: 0}
    - target: {fileID: 23688075534880568, guid: c11770e54c88bfb409bb6f66fac011f3,
        type: 2}
      propertyPath: m_LightProbeUsage
      value: 1
      objectReference: {fileID: 0}
    - target: {fileID: 23764688077477066, guid: c11770e54c88bfb409bb6f66fac011f3,
        type: 2}
      propertyPath: m_LightProbeUsage
      value: 1
      objectReference: {fileID: 0}
    - target: {fileID: 23211263033357874, guid: c11770e54c88bfb409bb6f66fac011f3,
        type: 2}
      propertyPath: m_LightProbeUsage
      value: 1
      objectReference: {fileID: 0}
    - target: {fileID: 23141812220458298, guid: c11770e54c88bfb409bb6f66fac011f3,
        type: 2}
      propertyPath: m_LightProbeUsage
      value: 1
      objectReference: {fileID: 0}
    - target: {fileID: 23301941148433230, guid: c11770e54c88bfb409bb6f66fac011f3,
        type: 2}
      propertyPath: m_LightProbeUsage
      value: 1
      objectReference: {fileID: 0}
    - target: {fileID: 23717083017244036, guid: c11770e54c88bfb409bb6f66fac011f3,
        type: 2}
      propertyPath: m_LightProbeUsage
      value: 1
      objectReference: {fileID: 0}
    - target: {fileID: 23021575133181766, guid: c11770e54c88bfb409bb6f66fac011f3,
        type: 2}
      propertyPath: m_LightProbeUsage
      value: 1
      objectReference: {fileID: 0}
    - target: {fileID: 23035918691311530, guid: c11770e54c88bfb409bb6f66fac011f3,
        type: 2}
      propertyPath: m_LightProbeUsage
      value: 1
      objectReference: {fileID: 0}
    - target: {fileID: 23622262999523060, guid: c11770e54c88bfb409bb6f66fac011f3,
        type: 2}
      propertyPath: m_LightProbeUsage
      value: 1
      objectReference: {fileID: 0}
    - target: {fileID: 23800886749918872, guid: c11770e54c88bfb409bb6f66fac011f3,
        type: 2}
      propertyPath: m_LightProbeUsage
      value: 1
      objectReference: {fileID: 0}
    - target: {fileID: 23095511146293436, guid: c11770e54c88bfb409bb6f66fac011f3,
        type: 2}
      propertyPath: m_LightProbeUsage
      value: 1
      objectReference: {fileID: 0}
    - target: {fileID: 23306576194244218, guid: c11770e54c88bfb409bb6f66fac011f3,
        type: 2}
      propertyPath: m_LightProbeUsage
      value: 1
      objectReference: {fileID: 0}
    - target: {fileID: 23334368301755782, guid: c11770e54c88bfb409bb6f66fac011f3,
        type: 2}
      propertyPath: m_LightProbeUsage
      value: 1
      objectReference: {fileID: 0}
    - target: {fileID: 23100880797902582, guid: c11770e54c88bfb409bb6f66fac011f3,
        type: 2}
      propertyPath: m_LightProbeUsage
      value: 1
      objectReference: {fileID: 0}
    - target: {fileID: 23373963515362880, guid: c11770e54c88bfb409bb6f66fac011f3,
        type: 2}
      propertyPath: m_LightProbeUsage
      value: 1
      objectReference: {fileID: 0}
    - target: {fileID: 23513961930428348, guid: c11770e54c88bfb409bb6f66fac011f3,
        type: 2}
      propertyPath: m_LightProbeUsage
      value: 1
      objectReference: {fileID: 0}
    - target: {fileID: 23171178413238308, guid: c11770e54c88bfb409bb6f66fac011f3,
        type: 2}
      propertyPath: m_LightProbeUsage
      value: 1
      objectReference: {fileID: 0}
    m_RemovedComponents: []
  m_SourcePrefab: {fileID: 100100000, guid: c11770e54c88bfb409bb6f66fac011f3, type: 2}
  m_IsPrefabAsset: 0
--- !u!1001 &1116540162
Prefab:
  m_ObjectHideFlags: 0
  serializedVersion: 2
  m_Modification:
    m_TransformParent: {fileID: 0}
    m_Modifications:
    - target: {fileID: 4166908486328302, guid: 89ac7574574271d4e8c723922c328093, type: 2}
      propertyPath: m_LocalPosition.x
      value: -11
      objectReference: {fileID: 0}
    - target: {fileID: 4166908486328302, guid: 89ac7574574271d4e8c723922c328093, type: 2}
      propertyPath: m_LocalPosition.y
      value: 0
      objectReference: {fileID: 0}
    - target: {fileID: 4166908486328302, guid: 89ac7574574271d4e8c723922c328093, type: 2}
      propertyPath: m_LocalPosition.z
      value: -0.3
      objectReference: {fileID: 0}
    - target: {fileID: 4166908486328302, guid: 89ac7574574271d4e8c723922c328093, type: 2}
      propertyPath: m_LocalRotation.x
      value: 0
      objectReference: {fileID: 0}
    - target: {fileID: 4166908486328302, guid: 89ac7574574271d4e8c723922c328093, type: 2}
      propertyPath: m_LocalRotation.y
      value: 0
      objectReference: {fileID: 0}
    - target: {fileID: 4166908486328302, guid: 89ac7574574271d4e8c723922c328093, type: 2}
      propertyPath: m_LocalRotation.z
      value: 0
      objectReference: {fileID: 0}
    - target: {fileID: 4166908486328302, guid: 89ac7574574271d4e8c723922c328093, type: 2}
      propertyPath: m_LocalRotation.w
      value: 1
      objectReference: {fileID: 0}
    - target: {fileID: 4166908486328302, guid: 89ac7574574271d4e8c723922c328093, type: 2}
      propertyPath: m_RootOrder
      value: 11
      objectReference: {fileID: 0}
    - target: {fileID: 114116856560600076, guid: 89ac7574574271d4e8c723922c328093,
        type: 2}
      propertyPath: doorTransform
      value: 
      objectReference: {fileID: 372708933}
    - target: {fileID: 114186777795836332, guid: 89ac7574574271d4e8c723922c328093,
        type: 2}
      propertyPath: doorTransform
      value: 
      objectReference: {fileID: 269512146}
    - target: {fileID: 114116856560600076, guid: 89ac7574574271d4e8c723922c328093,
        type: 2}
      propertyPath: offset.z
      value: 2.25
      objectReference: {fileID: 0}
    m_RemovedComponents: []
  m_SourcePrefab: {fileID: 100100000, guid: 89ac7574574271d4e8c723922c328093, type: 2}
  m_IsPrefabAsset: 0
--- !u!1 &1267764827
GameObject:
  m_ObjectHideFlags: 0
  m_CorrespondingSourceObject: {fileID: 0}
  m_PrefabInternal: {fileID: 0}
  serializedVersion: 6
  m_Component:
  - component: {fileID: 1267764828}
  m_Layer: 0
  m_Name: '--- unused ----------------------------'
  m_TagString: Untagged
  m_Icon: {fileID: 0}
  m_NavMeshLayer: 0
  m_StaticEditorFlags: 0
  m_IsActive: 1
--- !u!4 &1267764828
Transform:
  m_ObjectHideFlags: 0
  m_CorrespondingSourceObject: {fileID: 0}
  m_PrefabInternal: {fileID: 0}
  m_GameObject: {fileID: 1267764827}
  m_LocalRotation: {x: 0, y: 0, z: 0, w: 1}
  m_LocalPosition: {x: 0, y: 0, z: 0}
  m_LocalScale: {x: 1, y: 1, z: 1}
  m_Children: []
  m_Father: {fileID: 0}
  m_RootOrder: 0
  m_LocalEulerAnglesHint: {x: 0, y: 0, z: 0}
--- !u!1 &1346090320
GameObject:
  m_ObjectHideFlags: 0
  m_CorrespondingSourceObject: {fileID: 0}
  m_PrefabInternal: {fileID: 0}
  serializedVersion: 6
  m_Component:
  - component: {fileID: 1346090322}
  - component: {fileID: 1346090321}
  m_Layer: 0
  m_Name: Reflection Probe
  m_TagString: Untagged
  m_Icon: {fileID: 0}
  m_NavMeshLayer: 0
  m_StaticEditorFlags: 0
  m_IsActive: 1
--- !u!215 &1346090321
ReflectionProbe:
  m_ObjectHideFlags: 0
  m_CorrespondingSourceObject: {fileID: 0}
  m_PrefabInternal: {fileID: 0}
  m_GameObject: {fileID: 1346090320}
  m_Enabled: 1
  serializedVersion: 2
  m_Type: 0
  m_Mode: 1
  m_RefreshMode: 1
  m_TimeSlicingMode: 2
  m_Resolution: 256
  m_UpdateFrequency: 0
  m_BoxSize: {x: 0.81, y: 0.8, z: 1}
  m_BoxOffset: {x: 0, y: 0.03, z: 0}
  m_NearClip: 0.2
  m_FarClip: 1000
  m_ShadowDistance: 100
  m_ClearFlags: 1
  m_BackGroundColor: {r: 0.1302065, g: 0.13093333, b: 0.13207549, a: 0}
  m_CullingMask:
    serializedVersion: 2
    m_Bits: 4294967295
  m_IntensityMultiplier: 0.5
  m_BlendDistance: 0.6
  m_HDR: 1
  m_BoxProjection: 0
  m_RenderDynamicObjects: 0
  m_UseOcclusionCulling: 1
  m_Importance: 1
  m_CustomBakedTexture: {fileID: 0}
--- !u!4 &1346090322
Transform:
  m_ObjectHideFlags: 0
  m_CorrespondingSourceObject: {fileID: 0}
  m_PrefabInternal: {fileID: 0}
  m_GameObject: {fileID: 1346090320}
  m_LocalRotation: {x: -0, y: -0, z: -0, w: 1}
  m_LocalPosition: {x: 0.015001297, y: -0.038273573, z: 0.029731154}
  m_LocalScale: {x: 1, y: 1, z: 1}
  m_Children: []
  m_Father: {fileID: 341758721}
  m_RootOrder: 0
  m_LocalEulerAnglesHint: {x: 0, y: 0, z: 0}
--- !u!1001 &1347289231
Prefab:
  m_ObjectHideFlags: 0
  serializedVersion: 2
  m_Modification:
    m_TransformParent: {fileID: 0}
    m_Modifications:
    - target: {fileID: 4876291307477804, guid: e94e35ac448aa8942ab9bb1dfcac5f8f, type: 2}
      propertyPath: m_LocalPosition.x
      value: 0
      objectReference: {fileID: 0}
    - target: {fileID: 4876291307477804, guid: e94e35ac448aa8942ab9bb1dfcac5f8f, type: 2}
      propertyPath: m_LocalPosition.y
      value: 0
      objectReference: {fileID: 0}
    - target: {fileID: 4876291307477804, guid: e94e35ac448aa8942ab9bb1dfcac5f8f, type: 2}
      propertyPath: m_LocalPosition.z
      value: 0
      objectReference: {fileID: 0}
    - target: {fileID: 4876291307477804, guid: e94e35ac448aa8942ab9bb1dfcac5f8f, type: 2}
      propertyPath: m_LocalRotation.x
      value: 0
      objectReference: {fileID: 0}
    - target: {fileID: 4876291307477804, guid: e94e35ac448aa8942ab9bb1dfcac5f8f, type: 2}
      propertyPath: m_LocalRotation.y
      value: 0
      objectReference: {fileID: 0}
    - target: {fileID: 4876291307477804, guid: e94e35ac448aa8942ab9bb1dfcac5f8f, type: 2}
      propertyPath: m_LocalRotation.z
      value: 0
      objectReference: {fileID: 0}
    - target: {fileID: 4876291307477804, guid: e94e35ac448aa8942ab9bb1dfcac5f8f, type: 2}
      propertyPath: m_LocalRotation.w
      value: 1
      objectReference: {fileID: 0}
    - target: {fileID: 4876291307477804, guid: e94e35ac448aa8942ab9bb1dfcac5f8f, type: 2}
      propertyPath: m_RootOrder
      value: 10
      objectReference: {fileID: 0}
    m_RemovedComponents: []
  m_SourcePrefab: {fileID: 100100000, guid: e94e35ac448aa8942ab9bb1dfcac5f8f, type: 2}
  m_IsPrefabAsset: 0
--- !u!1 &1491351734
GameObject:
  m_ObjectHideFlags: 0
  m_CorrespondingSourceObject: {fileID: 0}
  m_PrefabInternal: {fileID: 0}
  serializedVersion: 6
  m_Component:
  - component: {fileID: 1491351735}
  m_Layer: 0
  m_Name: '--- enabled ---------------------------'
  m_TagString: Untagged
  m_Icon: {fileID: 0}
  m_NavMeshLayer: 0
  m_StaticEditorFlags: 0
  m_IsActive: 1
--- !u!4 &1491351735
Transform:
  m_ObjectHideFlags: 0
  m_CorrespondingSourceObject: {fileID: 0}
  m_PrefabInternal: {fileID: 0}
  m_GameObject: {fileID: 1491351734}
  m_LocalRotation: {x: 0, y: 0, z: 0, w: 1}
  m_LocalPosition: {x: 0, y: 0, z: 0}
  m_LocalScale: {x: 1, y: 1, z: 1}
  m_Children: []
  m_Father: {fileID: 0}
  m_RootOrder: 5
  m_LocalEulerAnglesHint: {x: 0, y: 0, z: 0}
--- !u!1 &1602505217
GameObject:
  m_ObjectHideFlags: 0
  m_CorrespondingSourceObject: {fileID: 0}
  m_PrefabInternal: {fileID: 0}
  serializedVersion: 6
  m_Component:
  - component: {fileID: 1602505219}
  - component: {fileID: 1602505218}
  m_Layer: 8
  m_Name: PostProcessingGlobal
  m_TagString: Untagged
  m_Icon: {fileID: 0}
  m_NavMeshLayer: 0
  m_StaticEditorFlags: 0
  m_IsActive: 1
--- !u!114 &1602505218
MonoBehaviour:
  m_ObjectHideFlags: 0
  m_CorrespondingSourceObject: {fileID: 0}
  m_PrefabInternal: {fileID: 0}
  m_GameObject: {fileID: 1602505217}
  m_Enabled: 1
  m_EditorHideFlags: 0
  m_Script: {fileID: 11500000, guid: 8b9a305e18de0c04dbd257a21cd47087, type: 3}
  m_Name: 
  m_EditorClassIdentifier: 
  sharedProfile: {fileID: 11400000, guid: ae87931e564ded4419d3b19b98b256c5, type: 2}
  isGlobal: 1
  blendDistance: 0
  weight: 1
  priority: 0
--- !u!4 &1602505219
Transform:
  m_ObjectHideFlags: 0
  m_CorrespondingSourceObject: {fileID: 0}
  m_PrefabInternal: {fileID: 0}
  m_GameObject: {fileID: 1602505217}
  m_LocalRotation: {x: 0, y: 0, z: 0, w: 1}
  m_LocalPosition: {x: 0, y: 0, z: 0}
  m_LocalScale: {x: 1, y: 1, z: 1}
  m_Children: []
  m_Father: {fileID: 0}
  m_RootOrder: 7
  m_LocalEulerAnglesHint: {x: 0, y: 0, z: 0}
--- !u!1001 &1610611809
Prefab:
  m_ObjectHideFlags: 0
  serializedVersion: 2
  m_Modification:
    m_TransformParent: {fileID: 0}
    m_Modifications:
    - target: {fileID: 4061681736916004, guid: 5728ae1110527894990426ce834362bc, type: 2}
      propertyPath: m_LocalPosition.x
      value: -13
      objectReference: {fileID: 0}
    - target: {fileID: 4061681736916004, guid: 5728ae1110527894990426ce834362bc, type: 2}
      propertyPath: m_LocalPosition.y
      value: 0.5
      objectReference: {fileID: 0}
    - target: {fileID: 4061681736916004, guid: 5728ae1110527894990426ce834362bc, type: 2}
      propertyPath: m_LocalPosition.z
      value: 1
      objectReference: {fileID: 0}
    - target: {fileID: 4061681736916004, guid: 5728ae1110527894990426ce834362bc, type: 2}
      propertyPath: m_LocalRotation.x
      value: 0
      objectReference: {fileID: 0}
    - target: {fileID: 4061681736916004, guid: 5728ae1110527894990426ce834362bc, type: 2}
      propertyPath: m_LocalRotation.y
      value: 0
      objectReference: {fileID: 0}
    - target: {fileID: 4061681736916004, guid: 5728ae1110527894990426ce834362bc, type: 2}
      propertyPath: m_LocalRotation.z
      value: 0
      objectReference: {fileID: 0}
    - target: {fileID: 4061681736916004, guid: 5728ae1110527894990426ce834362bc, type: 2}
      propertyPath: m_LocalRotation.w
      value: 1
      objectReference: {fileID: 0}
    - target: {fileID: 4061681736916004, guid: 5728ae1110527894990426ce834362bc, type: 2}
      propertyPath: m_RootOrder
      value: 15
      objectReference: {fileID: 0}
    m_RemovedComponents: []
  m_SourcePrefab: {fileID: 100100000, guid: 5728ae1110527894990426ce834362bc, type: 2}
  m_IsPrefabAsset: 0
--- !u!1 &1632361038
GameObject:
  m_ObjectHideFlags: 0
  m_CorrespondingSourceObject: {fileID: 0}
  m_PrefabInternal: {fileID: 0}
  serializedVersion: 6
  m_Component:
  - component: {fileID: 1632361040}
  - component: {fileID: 1632361039}
  m_Layer: 0
  m_Name: Light Probe Group
  m_TagString: Untagged
  m_Icon: {fileID: 0}
  m_NavMeshLayer: 0
  m_StaticEditorFlags: 0
  m_IsActive: 1
--- !u!220 &1632361039
LightProbeGroup:
  m_ObjectHideFlags: 0
  m_CorrespondingSourceObject: {fileID: 0}
  m_PrefabInternal: {fileID: 0}
  m_GameObject: {fileID: 1632361038}
  m_Enabled: 1
  m_SourcePositions:
  - {x: 1, y: 1, z: 2.1502204}
  - {x: 1, y: 1, z: -1}
  - {x: 1, y: -1, z: 2.4169698}
  - {x: 1, y: -1, z: -1}
  - {x: -1, y: 1, z: 2.2970881}
  - {x: -1, y: 1, z: -1}
  - {x: -1, y: -1, z: -1}
  - {x: 2.7236195, y: 1.0010856, z: 2.1485834}
  - {x: 2.7236195, y: -0.9804722, z: 2.6064568}
  - {x: 2.7236195, y: -1.0176874, z: -1.1710138}
  - {x: 2.7236195, y: 1.0010856, z: -1.1710138}
  - {x: -1, y: -1, z: 1}
  - {x: -2.2854424, y: -1, z: 0.7670175}
  - {x: -2.2854424, y: -1, z: -1.3443497}
  - {x: -2.2854424, y: 1.1988138, z: -1.3443497}
  - {x: -2.2854424, y: 1.1988138, z: 2.6878862}
  - {x: -2.2854424, y: 2.140778, z: -0.6508857}
  - {x: -2.2854424, y: 2.140778, z: 2.6878862}
--- !u!4 &1632361040
Transform:
  m_ObjectHideFlags: 0
  m_CorrespondingSourceObject: {fileID: 0}
  m_PrefabInternal: {fileID: 0}
  m_GameObject: {fileID: 1632361038}
  m_LocalRotation: {x: 0, y: 0, z: 0, w: 1}
  m_LocalPosition: {x: -10.579, y: 1.39, z: -0.505}
  m_LocalScale: {x: 1, y: 1, z: 1}
  m_Children: []
  m_Father: {fileID: 0}
  m_RootOrder: 18
  m_LocalEulerAnglesHint: {x: 0, y: 0, z: 0}
--- !u!1 &1700791333
GameObject:
  m_ObjectHideFlags: 0
  m_CorrespondingSourceObject: {fileID: 1890672303155546, guid: 3f411b0f7c096164096a9a03c1be6732,
    type: 2}
  m_PrefabInternal: {fileID: 0}
  serializedVersion: 6
  m_Component:
  - component: {fileID: 1700791335}
  - component: {fileID: 1700791334}
  m_Layer: 0
  m_Name: FgBlastDoorSpotRealtime
  m_TagString: Untagged
  m_Icon: {fileID: 0}
  m_NavMeshLayer: 0
  m_StaticEditorFlags: 4294967295
  m_IsActive: 0
--- !u!108 &1700791334
Light:
  m_ObjectHideFlags: 0
  m_CorrespondingSourceObject: {fileID: 108163281684182622, guid: 3f411b0f7c096164096a9a03c1be6732,
    type: 2}
  m_PrefabInternal: {fileID: 0}
  m_GameObject: {fileID: 1700791333}
  m_Enabled: 1
  serializedVersion: 8
  m_Type: 0
  m_Color: {r: 0.63999647, g: 0.8737985, b: 0.9622642, a: 1}
  m_Intensity: 3
  m_Range: 15
  m_SpotAngle: 60
  m_CookieSize: 10
  m_Shadows:
    m_Type: 0
    m_Resolution: -1
    m_CustomResolution: -1
    m_Strength: 1
    m_Bias: 0.05
    m_NormalBias: 0.4
    m_NearPlane: 0.2
  m_Cookie: {fileID: 0}
  m_DrawHalo: 0
  m_Flare: {fileID: 0}
  m_RenderMode: 0
  m_CullingMask:
    serializedVersion: 2
    m_Bits: 268435968
  m_Lightmapping: 4
  m_LightShadowCasterMode: 0
  m_AreaSize: {x: 1, y: 1}
  m_BounceIntensity: 0
  m_ColorTemperature: 6570
  m_UseColorTemperature: 0
  m_ShadowRadius: 0
  m_ShadowAngle: 0
--- !u!4 &1700791335
Transform:
  m_ObjectHideFlags: 0
  m_CorrespondingSourceObject: {fileID: 4842085134100662, guid: 3f411b0f7c096164096a9a03c1be6732,
    type: 2}
  m_PrefabInternal: {fileID: 0}
  m_GameObject: {fileID: 1700791333}
  m_LocalRotation: {x: 0.5937009, y: 0.38408238, z: -0.5937009, w: 0.38408238}
  m_LocalPosition: {x: -13, y: 5, z: 0}
  m_LocalScale: {x: 1.250001, y: 0.100000165, z: 0.10000011}
  m_Children: []
  m_Father: {fileID: 0}
  m_RootOrder: 4
  m_LocalEulerAnglesHint: {x: 114.2, y: 0, z: 0}
--- !u!4 &1871878614 stripped
Transform:
  m_CorrespondingSourceObject: {fileID: 400000, guid: 5e9e851c0e142814dac026a256ba2ac0,
    type: 2}
  m_PrefabInternal: {fileID: 456390964}
--- !u!1001 &1881467666
Prefab:
  m_ObjectHideFlags: 0
  serializedVersion: 2
  m_Modification:
    m_TransformParent: {fileID: 0}
    m_Modifications:
    - target: {fileID: 4051753187159158, guid: 66f606c3eaad83d42ac8cade14adabbb, type: 2}
      propertyPath: m_LocalPosition.x
      value: 0
      objectReference: {fileID: 0}
    - target: {fileID: 4051753187159158, guid: 66f606c3eaad83d42ac8cade14adabbb, type: 2}
      propertyPath: m_LocalPosition.y
      value: 0
      objectReference: {fileID: 0}
    - target: {fileID: 4051753187159158, guid: 66f606c3eaad83d42ac8cade14adabbb, type: 2}
      propertyPath: m_LocalPosition.z
      value: 0
      objectReference: {fileID: 0}
    - target: {fileID: 4051753187159158, guid: 66f606c3eaad83d42ac8cade14adabbb, type: 2}
      propertyPath: m_LocalRotation.x
      value: -0
      objectReference: {fileID: 0}
    - target: {fileID: 4051753187159158, guid: 66f606c3eaad83d42ac8cade14adabbb, type: 2}
      propertyPath: m_LocalRotation.y
      value: -0
      objectReference: {fileID: 0}
    - target: {fileID: 4051753187159158, guid: 66f606c3eaad83d42ac8cade14adabbb, type: 2}
      propertyPath: m_LocalRotation.z
      value: -0
      objectReference: {fileID: 0}
    - target: {fileID: 4051753187159158, guid: 66f606c3eaad83d42ac8cade14adabbb, type: 2}
      propertyPath: m_LocalRotation.w
      value: 1
      objectReference: {fileID: 0}
    - target: {fileID: 4051753187159158, guid: 66f606c3eaad83d42ac8cade14adabbb, type: 2}
      propertyPath: m_RootOrder
      value: 9
      objectReference: {fileID: 0}
    - target: {fileID: 4582500135908816, guid: 66f606c3eaad83d42ac8cade14adabbb, type: 2}
      propertyPath: m_LocalPosition.x
      value: 0.05
      objectReference: {fileID: 0}
    - target: {fileID: 4582500135908816, guid: 66f606c3eaad83d42ac8cade14adabbb, type: 2}
      propertyPath: m_LocalPosition.z
      value: -0
      objectReference: {fileID: 0}
    - target: {fileID: 4872708590017196, guid: 66f606c3eaad83d42ac8cade14adabbb, type: 2}
      propertyPath: m_LocalPosition.x
      value: -0.05
      objectReference: {fileID: 0}
    - target: {fileID: 1588133523405574, guid: 66f606c3eaad83d42ac8cade14adabbb, type: 2}
      propertyPath: m_StaticEditorFlags
      value: 0
      objectReference: {fileID: 0}
    - target: {fileID: 1613047505741644, guid: 66f606c3eaad83d42ac8cade14adabbb, type: 2}
      propertyPath: m_StaticEditorFlags
      value: 0
      objectReference: {fileID: 0}
    - target: {fileID: 1668065225537230, guid: 66f606c3eaad83d42ac8cade14adabbb, type: 2}
      propertyPath: m_StaticEditorFlags
      value: 0
      objectReference: {fileID: 0}
    - target: {fileID: 1691827834452834, guid: 66f606c3eaad83d42ac8cade14adabbb, type: 2}
      propertyPath: m_StaticEditorFlags
      value: 0
      objectReference: {fileID: 0}
    - target: {fileID: 1531114597966790, guid: 66f606c3eaad83d42ac8cade14adabbb, type: 2}
      propertyPath: m_StaticEditorFlags
      value: 0
      objectReference: {fileID: 0}
    - target: {fileID: 1338656909569184, guid: 66f606c3eaad83d42ac8cade14adabbb, type: 2}
      propertyPath: m_StaticEditorFlags
      value: 0
      objectReference: {fileID: 0}
    - target: {fileID: 1691827834452834, guid: 66f606c3eaad83d42ac8cade14adabbb, type: 2}
      propertyPath: m_Layer
      value: 28
      objectReference: {fileID: 0}
    - target: {fileID: 1338656909569184, guid: 66f606c3eaad83d42ac8cade14adabbb, type: 2}
      propertyPath: m_Layer
      value: 28
      objectReference: {fileID: 0}
    - target: {fileID: 1531114597966790, guid: 66f606c3eaad83d42ac8cade14adabbb, type: 2}
      propertyPath: m_Layer
      value: 28
      objectReference: {fileID: 0}
    - target: {fileID: 1613047505741644, guid: 66f606c3eaad83d42ac8cade14adabbb, type: 2}
      propertyPath: m_Layer
      value: 28
      objectReference: {fileID: 0}
    - target: {fileID: 1668065225537230, guid: 66f606c3eaad83d42ac8cade14adabbb, type: 2}
      propertyPath: m_Layer
      value: 28
      objectReference: {fileID: 0}
    - target: {fileID: 1588133523405574, guid: 66f606c3eaad83d42ac8cade14adabbb, type: 2}
      propertyPath: m_Layer
      value: 28
      objectReference: {fileID: 0}
    - target: {fileID: 23283584654751652, guid: 66f606c3eaad83d42ac8cade14adabbb,
        type: 2}
      propertyPath: m_CastShadows
      value: 1
      objectReference: {fileID: 0}
    - target: {fileID: 23048393114119484, guid: 66f606c3eaad83d42ac8cade14adabbb,
        type: 2}
      propertyPath: m_CastShadows
      value: 1
      objectReference: {fileID: 0}
    - target: {fileID: 1005449282018754, guid: 66f606c3eaad83d42ac8cade14adabbb, type: 2}
      propertyPath: m_Layer
      value: 30
      objectReference: {fileID: 0}
    - target: {fileID: 1862945713137466, guid: 66f606c3eaad83d42ac8cade14adabbb, type: 2}
      propertyPath: m_Layer
      value: 30
      objectReference: {fileID: 0}
    - target: {fileID: 1523861285329004, guid: 66f606c3eaad83d42ac8cade14adabbb, type: 2}
      propertyPath: m_Layer
      value: 30
      objectReference: {fileID: 0}
    - target: {fileID: 1557607743570558, guid: 66f606c3eaad83d42ac8cade14adabbb, type: 2}
      propertyPath: m_Layer
      value: 28
      objectReference: {fileID: 0}
    m_RemovedComponents: []
  m_SourcePrefab: {fileID: 100100000, guid: 66f606c3eaad83d42ac8cade14adabbb, type: 2}
  m_IsPrefabAsset: 0
--- !u!1001 &1970213529
Prefab:
  m_ObjectHideFlags: 0
  serializedVersion: 2
  m_Modification:
    m_TransformParent: {fileID: 0}
    m_Modifications:
    - target: {fileID: 4916218283271522, guid: 9352c5bd56ee6a24aa18b7f64958511c, type: 2}
      propertyPath: m_LocalPosition.x
      value: 0
      objectReference: {fileID: 0}
    - target: {fileID: 4916218283271522, guid: 9352c5bd56ee6a24aa18b7f64958511c, type: 2}
      propertyPath: m_LocalPosition.y
      value: 0
      objectReference: {fileID: 0}
    - target: {fileID: 4916218283271522, guid: 9352c5bd56ee6a24aa18b7f64958511c, type: 2}
      propertyPath: m_LocalPosition.z
      value: 0
      objectReference: {fileID: 0}
    - target: {fileID: 4916218283271522, guid: 9352c5bd56ee6a24aa18b7f64958511c, type: 2}
      propertyPath: m_LocalRotation.x
      value: -0
      objectReference: {fileID: 0}
    - target: {fileID: 4916218283271522, guid: 9352c5bd56ee6a24aa18b7f64958511c, type: 2}
      propertyPath: m_LocalRotation.y
      value: -0
      objectReference: {fileID: 0}
    - target: {fileID: 4916218283271522, guid: 9352c5bd56ee6a24aa18b7f64958511c, type: 2}
      propertyPath: m_LocalRotation.z
      value: -0
      objectReference: {fileID: 0}
    - target: {fileID: 4916218283271522, guid: 9352c5bd56ee6a24aa18b7f64958511c, type: 2}
      propertyPath: m_LocalRotation.w
      value: 1
      objectReference: {fileID: 0}
    - target: {fileID: 4916218283271522, guid: 9352c5bd56ee6a24aa18b7f64958511c, type: 2}
      propertyPath: m_RootOrder
      value: 25
      objectReference: {fileID: 0}
    - target: {fileID: 1203872663683004, guid: 9352c5bd56ee6a24aa18b7f64958511c, type: 2}
      propertyPath: m_IsActive
      value: 1
      objectReference: {fileID: 0}
    m_RemovedComponents: []
  m_SourcePrefab: {fileID: 100100000, guid: 9352c5bd56ee6a24aa18b7f64958511c, type: 2}
  m_IsPrefabAsset: 0
